<?xml version="1.0" encoding="UTF-8" standalone="no"?>
<!-- Created with Inkscape (http://www.inkscape.org/) -->

<svg
   width="500"
   height="131.42799"
   viewBox="0 0 132.29166 34.773659"
   version="1.1"
   id="svg38013"
   inkscape:version="1.2.2 (b0a8486541, 2022-12-01)"
   sodipodi:docname="logo.svg"
   xmlns:inkscape="http://www.inkscape.org/namespaces/inkscape"
   xmlns:sodipodi="http://sodipodi.sourceforge.net/DTD/sodipodi-0.dtd"
   xmlns="http://www.w3.org/2000/svg"
   xmlns:svg="http://www.w3.org/2000/svg">
  <sodipodi:namedview
     id="namedview38015"
     pagecolor="#ffffff"
     bordercolor="#666666"
     borderopacity="1.0"
     inkscape:pageshadow="2"
     inkscape:pageopacity="0.0"
     inkscape:pagecheckerboard="0"
     inkscape:document-units="mm"
     showgrid="false"
     inkscape:zoom="1.5518659"
     inkscape:cx="217.80233"
     inkscape:cy="63.794173"
     inkscape:window-width="1920"
     inkscape:window-height="1011"
     inkscape:window-x="0"
     inkscape:window-y="0"
     inkscape:window-maximized="1"
     inkscape:current-layer="g37886"
     units="px"
     inkscape:showpageshadow="0"
     inkscape:deskcolor="#d1d1d1" />
  <defs
     id="defs38010">
    <rect
       x="-225.66254"
       y="98.88398"
       width="263.61984"
       height="95.352783"
       id="rect26279" />
  </defs>
  <g
     inkscape:label="Layer 1"
     inkscape:groupmode="layer"
     id="layer1">
    <g
       id="g38159"
       transform="matrix(1.2059132,0,0,1.2059132,-63.382533,-84.591062)">
      <g
         id="g37886"
         transform="matrix(0.27961113,0,0,0.27961113,171.02165,63.149728)">
        <g
           id="g625"
           transform="translate(0.00732153)">
          <g
             id="g1112"
             transform="matrix(0.94625465,0,0,0.94625465,-455.41618,-15.793681)">
            <path
               fill-rule="evenodd"
               clip-rule="evenodd"
               d="m 157.18298,58.907946 c -7.2192,-18.426888 -36.34105,-10.880432 -37.58711,17.283662 -4.44173,-31.533473 34.72469,-44.473287 44.48059,-21.092386 4.3576,10.443392 0.0659,19.981688 -9.08857,23.288507 -9.86428,3.563218 -19.24285,-0.487156 -20.53918,-7.95906 -1.58851,-9.156063 9.5454,-12.772305 12.76023,-6.182191 -11.24594,-7.221424 -13.3928,9.422354 -3.30091,10.974458 10.70965,1.647109 16.49337,-7.805234 13.27495,-16.31299 z"
               fill="#cc0033"
               id="path32"
               sodipodi:nodetypes="ccssscsc"
               inkscape:label="debian smooth" />
            <path
               fill-rule="evenodd"
               clip-rule="evenodd"
               d="m 120.95234,77.840916 c -2.58863,11.731981 3.66149,18.416635 11.99666,15.938684 41.37539,-12.300437 46.39382,37.47572 11.517,43.9954 5.117,0.661 7.926,0.352 9.979,0 -3.177,1.929 -10.343,4.983 -21.985,3.262 -3.68502,0.79064 -7.31301,0.85197 -10.419,0.939 4.908,4.206 16.372,6.092 31.95,1.969 -4.13,4.49 -13.99,7.871 -26.139,7.199 -7.07901,-0.58492 -13.61516,-3.87937 -18.707,-8.359 -4.27345,1.11242 -12.436,-4.567 -15.5175,-6.474 -3.198826,4.14473 3.139031,9.55094 2.7918,15.812 -9.847847,-8.81574 -20.816497,6.53305 -30.6491,-6.857 -7.0725,-3.29 -14.6658,-4.695 -25.6246,-1.321 L 33.553,87.1215 c 45.9978,-19.5154 57.6666,-13.5332 69.417,0 5.24246,5.108111 9.13007,14.27496 15.114,17.3585 3.51094,1.73022 5.86062,5.27259 5.669,8.365 4.979,1.883 10.3991,3.60659 16.841,2.481 11.71231,-2.04649 10.18695,-8.98157 6.899,-11.062 -7.95072,-5.030761 -13.83613,3.41326 -25.29627,-3.47942 -5.34087,-3.212262 -9.18899,-13.297533 -4.92373,-25.15798 0.72946,2.120165 1.22956,2.797681 3.67934,2.214316 z M 50.1652,87.7547 C 30.917502,81.86653 40.327735,109.28692 43.486195,131.57996 45.74682,147.53591 57.01149,137.9259 59.028,125.963 49.341301,147.10315 43.460693,132.04931 47.2408,119.007 43.881017,108.87282 35.335615,84.815766 50.1652,87.7547 Z m 43.1395,25.3943 c 1.9914,2.023 4.1264,3.242 7.853,2.462 -0.937,-5.053 -2.1737,-7.396 -7.853,-2.462 z"
               fill="#cc0033"
               id="path34"
               sodipodi:nodetypes="cscccccccccccccccssscccscccccc"
               inkscape:label="elephant" />
          </g>
          <g
             id="g593">
            <g
               aria-label="DebConf 23"
               id="text2788"
               style="font-weight:bold;font-size:40px;font-family:Montserrat;-inkscape-font-specification:'Montserrat Bold';fill:#cc0033">
              <g
                 id="g568">
                <path
                   d="m -256.22181,74.719879 c 9.16,0 15.44,-5.52 15.44,-14 0,-8.48 -6.28,-14 -15.44,-14 h -12.72 v 28 z m -6.24,-22.68 h 5.92 c 5.56,0 9.2,3.32 9.2,8.68 0,5.36 -3.64,8.68 -9.2,8.68 h -5.92 z"
                   id="path349" />
                <path
                   d="m -215.2618,64.039879 c 0,-6.92 -4.88,-11.16 -11.2,-11.16 -6.56,0 -11.48,4.64 -11.48,11.08 0,6.4 4.84,11.08 12.28,11.08 3.88,0 6.88,-1.2 8.88,-3.48 l -3.32,-3.6 c -1.48,1.4 -3.12,2.08 -5.4,2.08 -3.28,0 -5.56,-1.64 -6.16,-4.32 h 16.28 c 0.04,-0.52 0.12,-1.2 0.12,-1.68 z m -11.16,-6.44 c 2.8,0 4.84,1.76 5.28,4.48 h -10.6 c 0.44,-2.76 2.48,-4.48 5.32,-4.48 z"
                   id="path351" />
                <path
                   d="m -198.38178,52.879879 c -2.68,0 -4.88,0.84 -6.48,2.6 v -10.44 h -6.24 v 29.68 h 5.96 v -2.48 c 1.56,1.88 3.88,2.8 6.76,2.8 6.04,0 10.72,-4.32 10.72,-11.08 0,-6.76 -4.68,-11.08 -10.72,-11.08 z m -1.08,17.04 c -3.12,0 -5.48,-2.24 -5.48,-5.96 0,-3.72 2.36,-5.96 5.48,-5.96 3.12,0 5.48,2.24 5.48,5.96 0,3.72 -2.36,5.96 -5.48,5.96 z"
                   id="path353" />
                <path
                   d="m -169.66176,75.199879 c 4.88,0 8.92,-1.76 11.56,-5 l -4.16,-3.84 c -1.88,2.2 -4.24,3.32 -7.04,3.32 -5.24,0 -8.96,-3.68 -8.96,-8.96 0,-5.28 3.72,-8.96 8.96,-8.96 2.8,0 5.16,1.12 7.04,3.28 l 4.16,-3.84 c -2.64,-3.2 -6.68,-4.96 -11.52,-4.96 -8.72,0 -15.2,6.04 -15.2,14.48 0,8.44 6.48,14.48 15.16,14.48 z"
                   id="path355" />
                <path
                   d="m -144.70173,75.039879 c 6.84,0 11.8,-4.6 11.8,-11.08 0,-6.48 -4.96,-11.08 -11.8,-11.08 -6.84,0 -11.84,4.6 -11.84,11.08 0,6.48 5,11.08 11.84,11.08 z m 0,-5.12 c -3.12,0 -5.52,-2.24 -5.52,-5.96 0,-3.72 2.4,-5.96 5.52,-5.96 3.12,0 5.48,2.24 5.48,5.96 0,3.72 -2.36,5.96 -5.48,5.96 z"
                   id="path357" />
                <path
                   d="m -115.6617,52.879879 c -2.92,0 -5.44,1 -7.12,2.84 v -2.52 h -5.96 v 21.52 h 6.24 v -10.64 c 0,-3.96 2.16,-5.8 5.16,-5.8 2.76,0 4.36,1.6 4.36,5.08 v 11.36 h 6.24 v -12.32 c 0,-6.56 -3.84,-9.52 -8.92,-9.52 z"
                   id="path359" />
                <path
                   d="m -94.261705,52.759879 c 0,-2.12 1,-3.12 2.84,-3.12 0.96,0 1.84,0.28 2.52,0.76 l 1.64,-4.52 c -1.16,-0.8 -3,-1.16 -4.76,-1.16 -5.36,0 -8.319995,3.16 -8.319995,8 v 0.96 h -3.32 v 4.8 h 3.32 v 16.24 h 6.239995 v -16.24 h 5.36 v -4.8 h -5.52 z"
                   id="path361" />
                <path
                   d="m -60.301702,63.359879 c 3.92,-3.64 4.68,-6.12 4.68,-8.84 0,-5.08 -4.16,-8.28 -10.4,-8.28 -5.04,0 -8.96,2.04 -11.12,5.2 l 4.72,3.04 c 1.36,-1.88 3.4,-2.8 5.8,-2.8 2.96,0 4.48,1.28 4.48,3.48 0,1.36 -0.44,2.8 -2.92,5.16 l -10.8,10.2 v 4.2 h 21.16 v -5.28 h -12.04 z"
                   id="path363" />
                <path
                   d="m -32.621696,50.919879 v -4.2 h -19.6 v 5.2 h 11.92 l -5.76,6.52 v 4.28 h 2.96 c 3.68,0 5.24,1.32 5.24,3.44 0,2.28 -2,3.6 -5.24,3.6 -2.92,0 -5.88,-0.92 -8,-2.52 l -2.52,4.96 c 2.72,1.92 6.76,3 10.68,3 7.96,0 11.6,-4.32 11.6,-9.04 0,-4.12 -2.56,-7.24 -7.6,-8.04 z"
                   id="path365" />
              </g>
            </g>
            <g
               aria-label="Kochi • India"
               transform="matrix(0.48040929,0,0,0.48040929,-162.41762,43.156822)"
               id="text26277"
               style="font-weight:600;font-size:40px;font-family:Montserrat;-inkscape-font-specification:'Montserrat Semi-Bold';white-space:pre;fill:#cc0033">
              <path
                 d="m -196.30211,135.64851 -12.48,-15.48 11.76,-12.52 h -5.84 l -13.84,14.36 v -14.36 h -5.2 v 28 h 5.2 v -7.16 l 4.44,-4.56 9.88,11.72 z"
                 id="path386" />
              <path
                 d="m -184.54213,135.92851 c 6.64,0 11.4,-4.56 11.4,-10.96 0,-6.4 -4.76,-10.92 -11.4,-10.92 -6.56,0 -11.36,4.52 -11.36,10.92 0,6.4 4.8,10.96 11.36,10.96 z m 0,-4.28 c -3.6,0 -6.32,-2.6 -6.32,-6.68 0,-4.08 2.72,-6.68 6.32,-6.68 3.64,0 6.36,2.6 6.36,6.68 0,4.08 -2.72,6.68 -6.36,6.68 z"
                 id="path388" />
              <path
                 d="m -158.54212,135.92851 c 4.16,0 7.48,-1.8 9.12,-5 l -3.84,-2.24 c -1.28,2.04 -3.2,2.96 -5.32,2.96 -3.68,0 -6.48,-2.52 -6.48,-6.68 0,-4.12 2.8,-6.68 6.48,-6.68 2.12,0 4.04,0.92 5.32,2.96 l 3.84,-2.24 c -1.64,-3.24 -4.96,-4.96 -9.12,-4.96 -6.76,0 -11.56,4.52 -11.56,10.92 0,6.4 4.8,10.96 11.56,10.96 z"
                 id="path390" />
              <path
                 d="m -133.18211,114.04851 c -2.96,0 -5.48,0.96 -7.12,2.72 v -10.8 h -5 v 29.68 h 5 v -10.8 c 0,-4.28 2.4,-6.44 5.96,-6.44 3.2,0 5.08,1.84 5.08,5.64 v 11.6 h 5 v -12.24 c 0,-6.44 -3.8,-9.36 -8.92,-9.36 z"
                 id="path392" />
              <path
                 d="m -115.38213,110.76851 c 1.88,0 3.2,-1.36 3.2,-3.12 0,-1.64 -1.36,-2.88 -3.2,-2.88 -1.84,0 -3.2,1.32 -3.2,3 0,1.68 1.36,3 3.2,3 z m 2.48,24.88 v -21.36 h -5 v 21.36 z"
                 id="path394" />
              <path
                 d="m -91.902184,128.88851 c 2.32,0 4.32,-1.8 4.32,-4.36 0,-2.52 -2,-4.32 -4.32,-4.32 -2.32,0 -4.28,1.8 -4.28,4.32 0,2.56 1.96,4.36 4.28,4.36 z"
                 id="path396" />
              <path
                 d="m -65.182258,135.64851 v -28 h -5.2 v 28 z"
                 id="path398" />
              <path
                 d="m -45.982248,114.04851 c -3.12,0 -5.72,1.04 -7.36,3 v -2.76 h -4.76 v 21.36 h 5 v -10.8 c 0,-4.28 2.4,-6.44 5.96,-6.44 3.2,0 5.08,1.84 5.08,5.64 v 11.6 h 5 v -12.24 c 0,-6.44 -3.8,-9.36 -8.92,-9.36 z"
                 id="path400" />
              <path
                 d="m -14.742291,116.92851 c -1.68,-1.96 -4.12,-2.88 -6.88,-2.88 -6.2,0 -10.8,4.28 -10.8,10.92 0,6.64 4.6,10.96 10.8,10.96 2.92,0 5.4,-1 7.08,-3.04 v 2.76 h 4.7999997 v -29.68 h -4.9999997 z m -6.28,14.72 c -3.6,0 -6.36,-2.6 -6.36,-6.68 0,-4.08 2.76,-6.68 6.36,-6.68 3.6,0 6.36,2.6 6.36,6.68 0,4.08 -2.76,6.68 -6.36,6.68 z"
                 id="path402" />
              <path
                 d="m -0.66228027,110.76851 c 1.87999997,0 3.19999997,-1.36 3.19999997,-3.12 0,-1.64 -1.36,-2.88 -3.19999997,-2.88 -1.84000003,0 -3.20000003,1.32 -3.20000003,3 0,1.68 1.36,3 3.20000003,3 z m 2.47999997,24.88 v -21.36 h -5 v 21.36 z"
                 id="path404" />
              <path
                 d="m 16.537702,114.04851 c -3.44,0 -6.76,0.88 -9.04,2.64 l 1.96,3.64 c 1.6,-1.32 4.08,-2.12 6.48,-2.12 3.56,0 5.32,1.72 5.32,4.64 v 0.32 h -5.52 c -6.48,0 -8.88,2.8 -8.88,6.36 0,3.72 3.08,6.4 7.96,6.4 3.2,0 5.52,-1.04 6.72,-2.88 v 2.6 h 4.72 v -12.52 c 0,-6.16 -3.56,-9.08 -9.72,-9.08 z m -0.68,18.24 c -2.56,0 -4.08,-1.16 -4.08,-2.96 0,-1.56 0.92,-2.84 4.32,-2.84 h 5.16 v 2.48 c -0.84,2.2 -2.96,3.32 -5.4,3.32 z"
                 id="path406" />
            </g>
          </g>
        </g>
      </g>
    </g>
  </g>
</svg>
