<?xml version="1.0" encoding="UTF-8" standalone="no"?>
<!-- Created with Inkscape (http://www.inkscape.org/) -->

<svg
   width="100"
   height="100"
   viewBox="0 0 26.458333 26.458333"
   version="1.1"
   id="svg7609"
   inkscape:version="1.2.2 (b0a8486541, 2022-12-01)"
   sodipodi:docname="multilingual-button.svg"
   xmlns:inkscape="http://www.inkscape.org/namespaces/inkscape"
   xmlns:sodipodi="http://sodipodi.sourceforge.net/DTD/sodipodi-0.dtd"
   xmlns="http://www.w3.org/2000/svg"
   xmlns:svg="http://www.w3.org/2000/svg">
  <sodipodi:namedview
     id="namedview7611"
     pagecolor="#ffffff"
     bordercolor="#666666"
     borderopacity="1.0"
     inkscape:showpageshadow="2"
     inkscape:pageopacity="0.0"
     inkscape:pagecheckerboard="0"
     inkscape:deskcolor="#d1d1d1"
     inkscape:document-units="mm"
     showgrid="false"
     inkscape:zoom="4.7572176"
     inkscape:cx="127.28028"
     inkscape:cy="97.325798"
     inkscape:window-width="2560"
     inkscape:window-height="1371"
     inkscape:window-x="0"
     inkscape:window-y="0"
     inkscape:window-maximized="1"
     inkscape:current-layer="g11497"
     inkscape:pageshadow="2" />
  <defs
     id="defs7606" />
  <g
     inkscape:label="Layer 1"
     inkscape:groupmode="layer"
     id="layer1">
    <g
       id="g11497"
       transform="translate(412.01255,-119.69253)">
      <g
         id="g128283"
         transform="matrix(0.10400784,0,0,0.10400784,-462.62669,-136.1325)"
         style="fill:#a80030;fill-opacity:1"
         inkscape:export-filename="/home/avronr/Sources/debconf23-artwork/finaldraft6.png"
         inkscape:export-xdpi="131.41048"
         inkscape:export-ydpi="131.41048">
        <path
           d="m 623.93574,2687.0024 q 1.49414,0.076 2.48195,0.8046 0.97127,0.7434 1.65592,1.8506 l -1.47535,0.792 q -0.61323,-0.9616 -1.25294,-1.4042 -0.6397,-0.4426 -1.39463,-0.4812 -0.6763,-0.035 -1.05167,0.2145 -0.39191,0.2638 -0.41999,0.8143 -0.0289,0.5662 0.34345,0.9952 0.35661,0.4281 1.31938,1.0292 0.84096,0.5159 1.30686,0.9654 0.44936,0.4645 0.61483,0.9302 0.16467,0.4815 0.13819,1.0005 -0.0489,0.9594 -0.85249,1.5649 -0.80435,0.6213 -2.20412,0.5499 -0.53475,-0.027 -0.94126,-0.095 -0.42224,-0.069 -0.84208,-0.1848 l 0.4073,-1.4931 q 0.69892,0.2092 1.4224,0.2461 1.17958,0.06 1.21809,-0.6948 0.0136,-0.2674 -0.10175,-0.4783 -0.1162,-0.1951 -0.43525,-0.4321 -0.31905,-0.2371 -0.91558,-0.5986 -1.37619,-0.8429 -1.87323,-1.6094 -0.51357,-0.7516 -0.46302,-1.7424 0.0618,-1.211 0.93385,-1.9234 0.85555,-0.6975 2.38114,-0.6197 z"
           style="font-style:normal;font-variant:normal;font-weight:600;font-stretch:normal;font-size:15.7482px;line-height:1.25;font-family:'Noto Sans Gujarati';-inkscape-font-specification:'Noto Sans Gujarati Semi-Bold';white-space:pre;fill:#a80030;fill-opacity:1"
           id="path128173" />
        <path
           d="m 623.08319,2697.2245 q 0.26209,1.3537 0.65705,1.9573 0.41069,0.6044 1.21281,0.6453 0.20446,0.01 0.42625,-0.01 0.23752,-0.019 0.446,-0.088 l 0.39802,1.471 q -0.32017,0.094 -0.70004,0.122 -0.37988,0.028 -0.77307,0.01 -0.55047,-0.028 -1.03081,-0.1945 -0.48034,-0.1664 -0.89906,-0.6136 -0.41952,-0.4313 -0.75607,-1.2527 -0.33735,-0.8057 -0.58532,-2.1271 z"
           style="font-style:normal;font-variant:normal;font-weight:600;font-stretch:normal;font-size:15.7482px;line-height:1.25;font-family:'Noto Sans Gujarati';-inkscape-font-specification:'Noto Sans Gujarati Semi-Bold';white-space:pre;fill:#a80030;fill-opacity:1"
           id="path128175" />
        <path
           d="m 616.50542,2686.0664 q 0.82712,0.257 1.25695,0.572 0.4101,0.3254 0.56761,0.7206 0.1321,0.3709 0.12621,0.8144 -0.0209,0.4387 -0.24527,1.1606 l -1.98176,6.3764 q -0.29445,0.9474 -0.61574,1.5567 -0.33633,0.6045 -0.72753,0.9612 -0.39587,0.3717 -0.88401,0.6158 -0.87305,0.4213 -1.88023,0.3721 -1.00717,-0.049 -2.07492,-0.381 -1.80463,-0.5609 -3.5229,-1.771 -1.73799,-1.1999 -3.32173,-2.8959 l 1.21038,-0.9761 q 1.44433,1.4548 2.93601,2.5451 1.47664,1.0856 3.13089,1.5997 0.73689,0.2291 1.34006,0.2516 0.59849,0.038 1.09232,-0.1717 0.34548,-0.1565 0.64381,-0.4266 0.27862,-0.2597 0.53244,-0.758 0.25382,-0.4984 0.51556,-1.3405 l 1.85555,-5.9703 q 0.11218,-0.361 0.1325,-0.5855 0.0203,-0.2246 -0.0372,-0.3579 -0.10934,-0.2319 -0.34061,-0.3367 -0.23127,-0.1049 -0.62227,-0.2264 l 0.59807,-1.4468 z"
           style="font-style:normal;font-variant:normal;font-weight:600;font-stretch:normal;font-size:15.7482px;line-height:1.25;font-family:'Noto Sans Gujarati';-inkscape-font-specification:'Noto Sans Gujarati Semi-Bold';white-space:pre;fill:#a80030;fill-opacity:1"
           id="path128177" />
        <path
           d="m 611.54841,2686.9994 q 0.9324,0.2898 1.5374,0.8901 0.58997,0.5956 0.78101,1.4136 0.176,0.8133 -0.12313,1.7758 -0.43935,1.4136 -1.65116,2.0759 -1.21182,0.6623 -2.93211,0.5729 l 0.0416,-1.6197 q 1.09639,0.028 1.82576,-0.356 0.72469,-0.3685 0.98643,-1.2107 0.19631,-0.6316 0.0979,-1.0579 -0.10304,-0.4114 -0.38715,-0.6646 -0.28878,-0.2381 -0.66475,-0.355 -0.6617,-0.2056 -1.11407,0.082 -0.26094,0.1498 -0.43896,0.4573 -0.17802,0.3075 -0.38367,0.9692 l -0.34587,1.1128 -1.66299,-0.6982 0.37391,-1.2031 q 0.0327,-0.1053 0.0608,-0.1955 -0.1134,-0.4311 -0.60968,-0.5853 -0.34588,-0.1075 -0.64361,-0.052 -0.31276,0.051 -0.60377,0.1916 l -1.16381,3.7447 -1.64795,-0.6936 1.9537,-6.2862 q 0.11218,-0.3609 0.1325,-0.5855 0.005,-0.2292 -0.0522,-0.3625 -0.0943,-0.2272 -0.32557,-0.3321 -0.24631,-0.1095 -0.62228,-0.2264 l 0.59807,-1.4467 0.30077,0.093 q 0.73689,0.229 1.18643,0.5336 0.44486,0.3197 0.64382,0.7938 0.18393,0.4694 0.1189,0.944 -0.0847,0.4849 -0.24365,0.9962 l -0.35989,1.158 q 0.26764,-0.065 0.56171,-0.056 0.29406,0.01 0.63995,0.1164 0.27069,0.084 0.52269,0.2284 0.23229,0.1547 0.4215,0.3949 0.54117,-0.5739 1.33476,-0.7396 0.78891,-0.1506 1.85665,0.1813 z"
           style="font-style:normal;font-variant:normal;font-weight:600;font-stretch:normal;font-size:15.7482px;line-height:1.25;font-family:'Noto Sans Gujarati';-inkscape-font-specification:'Noto Sans Gujarati Semi-Bold';white-space:pre;fill:#a80030;fill-opacity:1"
           id="path128179" />
        <path
           d="m 599.3401,2682.1893 q 1.35738,0.6657 1.83796,1.7959 0.48058,1.1302 0.32229,2.5259 -0.88889,-0.1903 -1.56433,-0.1006 -0.67544,0.09 -0.95281,0.6553 -0.18722,0.3817 -0.0295,0.7397 0.15077,0.3721 0.67392,0.6287 0.25451,0.1248 0.48741,0.1864 0.21182,0.069 0.35987,0.089 l -0.29166,1.4531 q -0.61331,-0.073 -1.33442,-0.4264 -1.28668,-0.631 -1.59677,-1.5724 -0.33117,-0.9341 0.13342,-1.8815 0.35365,-0.7211 0.9709,-1.0498 0.61033,-0.3146 1.40582,-0.363 -0.11583,-0.4076 -0.37196,-0.7437 -0.27721,-0.3289 -0.74381,-0.5577 -0.608,-0.2982 -1.19968,-0.3077 -0.59169,-0.01 -1.24497,0.2138 l -1.96239,4.0015 -1.52147,-0.9391 2.8985,-5.9103 q 0.17336,-0.3535 0.22802,-0.5722 0.0336,-0.2116 -0.01,-0.3732 -0.0651,-0.2249 -0.27748,-0.3641 -0.21237,-0.1393 -0.57999,-0.3196 l 0.81374,-1.3374 0.29693,0.1457 q 0.73525,0.3605 1.11143,0.738 0.37619,0.3774 0.47841,0.8485 0.11637,0.478 -0.021,0.9369 -0.14426,0.473 -0.38696,0.9679 l -0.2219,0.4524 q 0.56287,-0.075 1.12709,0.027 0.55729,0.1154 1.16528,0.4136 z"
           style="font-style:normal;font-variant:normal;font-weight:600;font-stretch:normal;font-size:15.7482px;line-height:1.25;font-family:'Noto Sans Gujarati';-inkscape-font-specification:'Noto Sans Gujarati Semi-Bold';white-space:pre;fill:#a80030;fill-opacity:1"
           id="path128181" />
        <path
           d="m 591.92928,2678.8331 q 0.28401,0.1695 0.50369,0.5389 0.20615,0.3614 0.31264,0.8284 0.0984,0.4805 0.0564,0.9506 -0.042,0.47 -0.26798,0.8487 -0.21786,0.3651 -0.57403,0.501 -0.35616,0.136 -0.91065,-0.1949 l -3.96253,-2.3642 -1.57344,2.6372 -1.43945,-1.0605 3.3728,-5.6531 q 0.19366,-0.3245 0.26605,-0.5381 0.0589,-0.2216 0.0342,-0.3647 -0.0384,-0.2429 -0.23866,-0.3991 -0.21377,-0.1642 -0.55187,-0.3659 l 0.92054,-1.2663 0.27048,0.1614 q 0.70324,0.4196 1.06078,0.8346 0.34401,0.407 0.40992,0.8497 0.0469,0.4131 -0.0762,0.8348 -0.12319,0.4216 -0.50243,1.0572 l -1.16193,1.9475 2.24499,1.3394 0.40344,-0.6762 q 0.29855,-0.5004 0.66563,-0.5931 0.34549,-0.087 0.73768,0.1467 z"
           style="font-style:normal;font-variant:normal;font-weight:600;font-stretch:normal;font-size:15.7482px;line-height:1.25;font-family:'Noto Sans Gujarati';-inkscape-font-specification:'Noto Sans Gujarati Semi-Bold';white-space:pre;fill:#a80030;fill-opacity:1"
           id="path128183" />
        <path
           d="m 570.63884,2666.0316 q 0.16477,-0.1828 0.11701,-0.4743 -0.0581,-0.2801 -0.30935,-0.5067 -0.17134,-0.1545 -0.50276,-0.2462 -0.33143,-0.092 -0.7898,-0.1116 0.067,0.4539 0.19252,0.7741 0.12547,0.3202 0.2968,0.4746 0.2513,0.2266 0.54621,0.244 0.28461,0.029 0.44937,-0.1539 z m 4.63476,2.025 q 0.60758,-0.6739 0.72026,-1.442 0.10126,-0.7784 -0.35563,-1.1903 -0.46832,-0.4222 -1.22065,-0.2308 -0.76376,0.1811 -1.37134,0.855 l -0.89094,-0.8032 q 0.60757,-0.674 0.65172,-1.5038 0.0327,-0.8402 -0.51554,-1.3345 -0.43405,-0.3913 -1.03997,-0.3164 -0.62764,0.076 -1.07045,0.5672 -0.24714,0.2742 -0.41771,0.5552 -0.19229,0.2822 -0.30912,0.5496 0.3818,0.013 0.78288,0.1881 0.39079,0.1867 0.74488,0.5059 0.49116,0.4428 0.57751,1.0591 0.0646,0.6173 -0.32669,1.0514 -0.39132,0.434 -1.00174,0.422 -0.63213,-0.011 -1.1233,-0.4536 -0.31982,-0.2883 -0.51382,-0.6703 -0.20543,-0.3923 -0.27248,-0.8461 -0.4943,0.5482 -0.12482,1.5854 0.35918,1.0485 1.37577,1.965 1.19935,1.0813 2.86843,0.9296 1.66909,-0.1518 2.83275,-1.4425 z m 1.03943,0.9371 q -0.88561,0.9823 -2.01542,1.4546 -1.14123,0.462 -2.28081,0.325 l 1.48491,1.3387 -0.80324,0.8909 -5.87109,-5.2931 q -0.43405,-0.3913 -0.96788,-0.3963 -0.54525,-0.015 -0.87479,0.3502 -0.27804,0.3084 -0.25667,0.721 0.0214,0.4127 0.32976,0.6908 0.13707,0.1235 0.28107,0.1705 0.13369,0.059 0.21832,0.011 -0.16328,-0.2093 -0.13446,-0.4939 0.0185,-0.2732 0.22448,-0.5017 0.22655,-0.2513 0.58662,-0.2372 0.34865,0 0.62279,0.2508 0.3084,0.2781 0.28858,0.7365 -0.0198,0.4583 -0.34936,0.8239 -0.4943,0.5482 -1.23279,0.5865 -0.76021,0.039 -1.30848,-0.455 -0.67392,-0.6076 -0.72115,-1.5198 -0.0472,-0.9123 0.56035,-1.5862 0.57668,-0.6396 1.4307,-0.7601 0.85401,-0.1204 1.60694,0.3306 -0.0886,-0.6596 0.0662,-1.2448 0.14452,-0.5737 0.51525,-0.9849 0.11327,-0.1256 0.26194,-0.1987 0.13725,-0.083 0.28816,-0.1129 0.0234,-0.6001 0.25591,-1.1566 0.22111,-0.5668 0.62273,-1.0123 0.83413,-0.9252 2.03792,-1.0202 1.19236,-0.1053 2.04904,0.6671 0.52543,0.4737 0.69735,1.2706 0.15021,0.798 -0.12032,1.6723 0.84165,-0.3594 1.59381,-0.3439 0.74186,0.027 1.17591,0.4183 0.89094,0.8032 0.81891,2.1463 -0.0823,1.3545 -1.08122,2.4625 z"
           style="font-style:normal;font-variant:normal;font-weight:600;font-stretch:normal;font-size:15.7482px;line-height:1.25;font-family:'Noto Sans Gujarati';-inkscape-font-specification:'Noto Sans Gujarati Semi-Bold';white-space:pre;fill:#a80030;fill-opacity:1"
           id="path128185" />
        <path
           d="m 560.2762,2654.9299 q -1.09543,0.9433 -1.70885,1.8572 -0.62345,0.9022 -0.67847,1.6396 0.70149,-0.3402 1.46417,-0.1852 0.75103,0.1651 1.2528,0.7478 0.62221,0.7225 0.56267,1.6668 -0.0712,0.9543 -0.79372,1.5765 -0.68755,0.5921 -1.61857,0.5008 -0.93101,-0.091 -1.55321,-0.8137 -1.42505,-1.6548 -0.84468,-3.8798 0.56871,-2.2148 2.93438,-4.2521 1.82961,-1.5755 3.49706,-1.8546 1.66746,-0.2791 2.6108,0.8163 0.57203,0.6643 0.67564,1.4681 0.0936,0.7921 -0.32207,1.3936 0.65649,-0.3218 1.43601,-0.1001 0.76948,0.2101 1.34151,0.8743 0.70248,0.8158 0.65654,1.8701 -0.0676,1.0527 -0.86007,1.7352 -0.57102,0.4917 -1.28449,0.7002 -0.73515,0.2069 -1.46773,0.087 -0.73257,-0.1201 -1.34116,0 -0.63027,0.1165 -1.02649,0.4577 -0.25638,0.2208 -0.28065,0.5462 -0.0243,0.3253 0.19651,0.5817 0.22079,0.2564 0.54612,0.2806 0.32534,0.024 0.58172,-0.1965 0.16315,-0.1405 0.29619,-0.3159 0.11135,-0.1771 0.17933,-0.3574 l 1.08576,0.648 q -0.0443,0.3021 -0.20716,0.5843 -0.17286,0.2707 -0.44089,0.5015 -0.66425,0.572 -1.55189,0.484 -0.88763,-0.088 -1.47973,-0.7756 -0.59209,-0.6876 -0.54744,-1.5784 0.0446,-0.8909 0.7089,-1.4629 0.5011,-0.4316 1.25794,-0.6368 0.7452,-0.1952 1.63445,-0.1289 0.73743,0.055 1.31267,-0.055 0.55355,-0.1114 0.84489,-0.3623 0.37291,-0.3211 0.41013,-0.82 0.0372,-0.4988 -0.28393,-0.8717 -0.4817,-0.5594 -1.31236,-0.5341 -0.84069,0.014 -1.52825,0.6057 l -0.78277,-0.909 q 0.68756,-0.5921 0.85587,-1.3865 0.16831,-0.7944 -0.29332,-1.3305 -0.53189,-0.6176 -1.65712,-0.2981 -1.13688,0.3296 -2.47704,1.4837 z m -0.75442,6.3122 q 0.31465,-0.271 0.34539,-0.6831 0.0307,-0.4121 -0.24021,-0.7267 -0.27096,-0.3147 -0.68306,-0.3454 -0.41209,-0.031 -0.72673,0.2402 -0.31465,0.271 -0.34539,0.6831 -0.0307,0.412 0.24022,0.7267 0.27095,0.3146 0.68305,0.3454 0.41209,0.031 0.72673,-0.2402 z"
           style="font-style:normal;font-variant:normal;font-weight:600;font-stretch:normal;font-size:15.7482px;line-height:1.25;font-family:'Noto Sans Gujarati';-inkscape-font-specification:'Noto Sans Gujarati Semi-Bold';white-space:pre;fill:#a80030;fill-opacity:1"
           id="path128187" />
        <path
           d="m 557.70872,2650.6333 q 1.13747,-0.6748 1.52837,-1.8545 0.38306,-1.1929 -0.20548,-2.1849 -0.58855,-0.992 -1.81126,-1.2143 -1.23056,-0.2356 -2.36803,0.4393 -1.13747,0.6749 -1.52053,1.8678 -0.3909,1.1797 0.19764,2.1716 0.58854,0.992 1.81911,1.2276 1.22271,0.2223 2.36018,-0.4526 z m -6.01885,-10.1446 q -1.13746,0.6748 -1.61469,1.709 -0.47722,1.0342 -0.0142,1.8146 l 0.56501,0.9523 -1.03166,0.6121 -1.07508,-1.812 q -0.21187,-0.3572 -0.61227,-0.4594 -0.4004,-0.1022 -0.75751,0.1097 -0.30421,0.1805 -0.49856,0.5462 -0.21541,0.3602 -0.29699,0.8557 l -1.09583,-0.2797 q 0.11967,-0.7327 0.46533,-1.2954 0.32458,-0.5681 0.81396,-0.8585 0.63487,-0.3766 1.29688,-0.376 0.64095,0 1.03464,0.3876 0.0652,-0.9149 0.63366,-1.735 0.54741,-0.8255 1.47325,-1.3748 0.14549,-0.086 0.32529,-0.1751 0.17979,-0.089 0.38065,-0.1722 0.77517,-1.0143 0.98875,-2.0709 0.19251,-1.062 -0.23909,-1.7894 -0.58854,-0.992 -1.83771,-1.1986 -1.25702,-0.2199 -2.43416,0.4786 -1.17715,0.6984 -1.57344,1.8991 -0.41736,1.1954 0.17119,2.1874 l -1.07874,0.5327 q -0.87105,-1.4681 -0.34566,-3.1747 0.51215,-1.6986 2.11255,-2.6481 1.60039,-0.9496 3.36564,-0.5663 1.76525,0.3832 2.65199,1.8778 0.53361,0.8994 0.46754,1.9937 -0.0661,1.0942 -0.71435,2.0511 1.15051,-0.1104 2.11117,0.3032 0.96065,0.4135 1.43933,1.2203 0.57285,0.9655 0.58076,2.0338 -0.005,1.0761 -0.56594,1.9094 1.06823,-0.01 1.99414,0.4978 0.92592,0.5057 1.45953,1.4051 0.88674,1.4946 0.36382,3.2354 -0.53614,1.7487 -2.17621,2.7217 -1.64007,0.9731 -3.41855,0.5977 -1.7917,-0.3676 -2.67844,-1.8622 -0.88674,-1.4945 -0.3506,-3.2432 0.52292,-1.7408 2.16299,-2.7139 0.0661,-0.039 0.36743,-0.1643 0.28022,-0.1305 0.54721,-0.2532 0.66601,-0.8064 0.81839,-1.7552 0.13132,-0.9541 -0.30813,-1.6948 -0.46299,-0.7803 -1.59938,-0.8572 -1.1364,-0.077 -2.27387,0.5981 z"
           style="font-style:normal;font-variant:normal;font-weight:600;font-stretch:normal;font-size:15.7482px;line-height:1.25;font-family:'Noto Sans Gujarati';-inkscape-font-specification:'Noto Sans Gujarati Semi-Bold';white-space:pre;fill:#a80030;fill-opacity:1"
           id="path128189" />
        <path
           d="m 544.81381,2623.5893 q -1.46893,0.5504 -2.1119,1.9902 -0.66277,1.4308 -0.11235,2.8998 l 1.43539,3.8307 -1.1233,0.4209 -3.39962,-9.0728 q -1.06927,0.3021 -2.01415,-0.1157 -0.95929,-0.4125 -1.29925,-1.3197 -0.21585,-0.5761 -0.0393,-1.2006 0.17656,-0.6246 0.68607,-1.0619 l 0.87463,0.6249 q -0.27008,0.3311 -0.37457,0.6659 -0.10988,0.3203 -0.0235,0.5508 0.17268,0.4608 0.68563,0.6463 0.49854,0.191 1.04579,-0.014 l -0.21045,-0.5617 q -0.29139,-0.7776 0.0508,-1.5299 0.34219,-0.7523 1.11986,-1.0437 0.77767,-0.2914 1.52998,0.051 0.75231,0.3422 1.0437,1.1198 0.2914,0.7777 -0.1372,1.5624 -0.42861,0.7847 -1.32149,1.1192 l -0.46084,0.1727 0.74468,1.9874 q 0.46108,-1.0925 1.21548,-1.8843 0.7544,-0.7918 1.70489,-1.1479 1.55534,-0.5828 2.94663,-0.2009 1.39129,0.382 1.8122,1.5053 0.30219,0.8065 -0.24166,1.7657 -0.54385,0.9593 -1.68701,1.634 -0.75252,0.4462 -1.13427,1.0491 -0.38715,0.5885 -0.21447,1.0493 0.1457,0.3888 0.69466,0.4952 0.53457,0.1117 1.15383,-0.1203 1.0945,-0.4101 1.84168,-1.1335 0.74179,-0.7378 0.96702,-1.627 l 1.13739,0.7563 q -0.39268,1.0997 -1.2947,1.9797 -0.90742,0.8655 -2.16034,1.335 -1.1665,0.4371 -2.23021,0.097 -1.0691,-0.3548 -1.41985,-1.2909 -0.35075,-0.9361 0.27053,-2.0393 0.60688,-1.0979 1.89767,-1.8607 0.60489,-0.3581 0.929,-0.808 0.30432,-0.4589 0.18021,-0.7901 -0.21585,-0.5761 -1.07261,-0.7149 -0.87655,-0.1478 -1.88465,0.2299 z m -4.11616,-1.5617 q 0.43204,-0.1619 0.65352,-0.4912 0.22149,-0.3293 0.10277,-0.6462 -0.11872,-0.3168 -0.47328,-0.4303 -0.35457,-0.1135 -0.74341,0.032 -0.23042,0.086 -0.30789,0.3617 -0.0919,0.2808 0.0268,0.5976 l 0.28061,0.7489 0.46084,-0.1727 z"
           style="font-style:normal;font-variant:normal;font-weight:600;font-stretch:normal;font-size:15.7482px;line-height:1.25;font-family:'Noto Sans Gujarati';-inkscape-font-specification:'Noto Sans Gujarati Semi-Bold';white-space:pre;fill:#a80030;fill-opacity:1"
           id="path128191" />
        <path
           d="m 540.88666,2601.0253 q 0.40979,-0.067 0.65098,-0.4026 0.24118,-0.3356 0.17414,-0.7454 -0.067,-0.4098 -0.4026,-0.651 -0.33555,-0.2411 -0.74534,-0.1741 -0.40978,0.067 -0.65097,0.4026 -0.25637,0.338 -0.18932,0.7478 0.067,0.4098 0.41777,0.6485 0.33555,0.2412 0.74534,0.1742 z m 0.25565,6.7058 q -1.69985,0.2781 -3.16043,-0.8387 -1.46306,-1.1319 -1.83169,-3.004 l -0.1973,0.032 -0.33275,-2.0338 q -0.0397,-0.2428 -0.26435,-0.3775 -0.24228,-0.1473 -0.54583,-0.098 -0.27319,0.045 -0.4407,0.2591 -0.1675,0.2144 -0.12529,0.4724 l 0.961,5.8737 -0.98652,0.1614 -0.95107,-5.8129 q -0.11423,-0.6982 0.29198,-1.2633 0.40373,-0.5803 1.08671,-0.6921 0.42496,-0.07 0.83916,0.081 0.39654,0.1377 0.69649,0.447 0.0615,-0.2905 0.17358,-0.5582 0.11204,-0.2677 0.24423,-0.5075 l 0.89131,0.3996 q -0.34054,0.5856 -0.44431,1.4752 -0.10626,0.8745 0.0651,1.9218 0.24583,1.5025 1.38852,2.3908 1.12751,0.8908 2.47829,0.6698 0.91064,-0.149 1.47359,-0.7086 0.56047,-0.5748 0.45121,-1.2426 -0.11175,-0.683 -0.76546,-1.0591 -0.6562,-0.3913 -1.47578,-0.2572 l -0.11919,-0.7285 q 0.86511,-0.1416 1.42033,-0.6532 0.54004,-0.5091 0.44568,-1.0858 l -0.0695,-0.425 -0.0607,0.01 q -0.0847,0.4347 -0.43712,0.7572 -0.35488,0.3074 -0.84055,0.3869 -0.69816,0.1142 -1.27847,-0.2895 -0.58031,-0.4037 -0.69702,-1.1171 -0.12168,-0.7436 0.32509,-1.3466 0.4316,-0.6004 1.16011,-0.7196 0.941,-0.154 1.7531,0.5235 0.79445,0.6648 0.97572,1.7727 0.10181,0.6223 -0.12752,1.2208 -0.22932,0.5985 -0.72356,1.0067 l 0.0403,0.056 q 0.58087,0.2166 0.99147,0.726 0.39542,0.5119 0.49972,1.1494 0.16886,1.032 -0.63528,1.9272 -0.80662,0.88 -2.14223,1.0985 z"
           style="font-style:normal;font-variant:normal;font-weight:600;font-stretch:normal;font-size:15.7482px;line-height:1.25;font-family:'Noto Sans Gujarati';-inkscape-font-specification:'Noto Sans Gujarati Semi-Bold';white-space:pre;fill:#a80030;fill-opacity:1"
           id="path128193" />
        <path
           d="m 540.47884,2597.0033 q -0.64428,0.046 -1.23053,-0.39 -0.6027,-0.4502 -0.95013,-1.2117 -0.29263,-0.6421 -0.68932,-1.0146 -0.39669,-0.3725 -0.76485,-0.3461 -0.33748,0.024 -0.56097,0.3485 -0.22348,0.3243 -0.19276,0.7538 0.034,0.4756 0.30471,0.8108 0.26958,0.32 0.60706,0.2958 0.19942,-0.014 0.40759,-0.1217 0.19283,-0.1063 0.36594,-0.2728 l 0.47563,0.8294 q -0.21363,0.2465 -0.52699,0.3923 -0.3287,0.1469 -0.7122,0.1743 -0.72097,0.052 -1.27109,-0.5258 -0.56655,-0.5916 -0.62911,-1.466 -0.0614,-0.859 0.43154,-1.511 0.493,-0.652 1.22931,-0.7047 0.6136,-0.044 1.19986,0.3921 0.57092,0.4371 0.90301,1.1997 0.29262,0.6421 0.72109,1.0277 0.41204,0.3714 0.81087,0.3429 0.50622,-0.036 0.83379,-0.4143 0.31224,-0.377 0.27602,-0.8832 -0.0494,-0.6903 -0.66632,-1.1241 -0.61803,-0.4492 -1.44639,-0.3899 l -0.0516,-0.721 q 0.82835,-0.059 1.37725,-0.5765 0.54889,-0.5172 0.5006,-1.1922 -0.0702,-0.9817 -1.17698,-1.581 -1.12208,-0.5981 -2.62539,-0.4906 -0.90505,0.065 -1.59532,0.33 -0.69027,0.2653 -1.08906,0.7255 l 0.0636,0.026 q 0.73631,-0.053 1.29518,0.4316 0.54353,0.4853 0.59621,1.2216 0.0538,0.7517 -0.42937,1.3259 -0.49958,0.56 -1.2359,0.6126 -0.75165,0.054 -1.31052,-0.4304 -0.57531,-0.4985 -0.62909,-1.2502 -0.10645,-1.4879 1.15349,-2.6265 1.24461,-1.1375 3.13141,-1.2725 1.91749,-0.1372 3.35078,0.7162 1.41686,0.8392 1.51344,2.1891 0.0439,0.6136 -0.21025,1.156 -0.25414,0.5424 -0.72307,0.8843 l 0.005,0.077 q 0.51173,0.2563 0.8405,0.757 0.32877,0.5007 0.37377,1.1297 0.0659,0.9204 -0.53234,1.6107 -0.59818,0.6904 -1.51857,0.7563 z m -5.5021,-4.494 q 0.41417,-0.03 0.70012,-0.3431 0.26951,-0.3276 0.23988,-0.7418 -0.0296,-0.4142 -0.34195,-0.6848 -0.32874,-0.2848 -0.74292,-0.2552 -0.41418,0.03 -0.68369,0.3573 -0.28594,0.3134 -0.25631,0.7276 0.0296,0.4141 0.35838,0.699 0.31231,0.2706 0.72649,0.241 z"
           style="font-style:normal;font-variant:normal;font-weight:600;font-stretch:normal;font-size:15.7482px;line-height:1.25;font-family:'Noto Sans Gujarati';-inkscape-font-specification:'Noto Sans Gujarati Semi-Bold';white-space:pre;fill:#a80030;fill-opacity:1"
           id="path128195" />
        <path
           d="m 538.18122,2585.0107 q 1.07485,0.06 1.88571,-0.6642 0.79552,-0.7255 0.85675,-1.8157 0.0604,-1.0749 -0.64976,-1.8695 -0.72462,-0.8109 -1.79946,-0.8713 -1.16698,-0.066 -2.03926,0.6557 -0.87143,0.7058 -0.9318,1.7806 -0.0612,1.0902 0.72481,1.9045 0.78604,0.8144 1.95301,0.8799 z m 0.44207,-10.0643 q -1.21304,-0.068 -2.11604,0.6513 -0.91835,0.7186 -0.97786,1.778 -0.0526,0.9367 -0.91886,1.5504 -0.8816,0.6128 -2.07928,0.5455 l 0.0448,-0.7984 q 0.84452,0.047 1.4513,-0.3344 0.60763,-0.3972 0.6404,-0.9806 0.0121,-0.215 -0.11232,-0.4685 -0.13888,-0.2696 -0.3699,-0.5444 l -2.28377,-2.6699 0.55139,-0.4927 2.55067,2.8542 q 0.49117,-1.066 1.49475,-1.6566 1.00445,-0.6059 2.18678,-0.5395 l 0.81036,0.1071 q 0.88057,-0.3202 1.44317,-1.0125 0.5626,-0.6924 0.60917,-1.5216 0.0474,-0.8445 -0.68753,-1.4711 -0.73497,-0.6266 -1.82517,-0.6878 -1.18233,-0.066 -2.05289,0.624 -0.88506,0.6743 -0.94198,1.6877 l -0.98513,-0.2864 q 0.0785,-1.3973 1.26908,-2.3008 1.19146,-0.9189 2.80372,-0.8284 1.48943,0.084 2.49545,1.0952 1.00687,0.9962 0.93184,2.332 -0.0543,0.9674 -0.62039,1.7212 -0.5814,0.7529 -1.45939,1.027 0.85195,0.4638 1.33261,1.2301 0.48067,0.7664 0.43324,1.6109 -0.044,0.7831 -0.44959,1.4227 -0.42096,0.6387 -1.08742,0.9863 l -0.007,0.1229 q 0.63352,0.5131 0.95978,1.2861 0.32712,0.7578 0.27968,1.6023 -0.0845,1.5048 -1.20351,2.5048 -1.119,0.9999 -2.60843,0.9163 -1.58155,-0.089 -2.64295,-1.2113 -1.0614,-1.1224 -0.97688,-2.6272 0.0837,-1.4895 1.26408,-2.486 1.18128,-1.0119 2.76283,-0.923 0.41458,0.023 0.7643,0.1045 0.33522,0.065 0.57658,0.1556 0.58624,-0.2905 0.95424,-0.809 0.36799,-0.5184 0.40077,-1.1019 0.0474,-0.8445 -0.71825,-1.4729 -0.76568,-0.6283 -1.88659,-0.6912 z"
           style="font-style:normal;font-variant:normal;font-weight:600;font-stretch:normal;font-size:15.7482px;line-height:1.25;font-family:'Noto Sans Gujarati';-inkscape-font-specification:'Noto Sans Gujarati Semi-Bold';white-space:pre;fill:#a80030;fill-opacity:1"
           id="path128197" />
        <path
           d="m 543.13664,2561.674 q 0.12844,-0.7113 -0.55595,-1.335 -0.6968,-0.6416 -1.80161,-0.8411 -1.21074,-0.2186 -2.23044,0.5818 -1.03483,0.7977 -1.27806,2.1447 l -0.0574,0.3178 q -0.12298,0.681 -0.70987,1.0751 -0.59929,0.3763 -1.32574,0.2451 -0.45403,-0.082 -0.79833,-0.4255 -0.35943,-0.3462 -0.48659,-0.8536 -0.20306,0.4322 -0.61821,0.6541 -0.41242,0.2069 -0.86645,0.1249 -0.74158,-0.1339 -1.14683,-0.8322 -0.42038,-0.7011 -0.26461,-1.5637 l 0.8964,-4.9641 0.98373,0.1777 -0.89093,4.9338 q -0.0847,0.4691 0.0973,0.8458 0.16963,0.3588 0.50258,0.4189 0.33296,0.06 0.61736,-0.2167 0.27201,-0.2947 0.35126,-0.7336 l 0.4646,-2.5728 0.99887,0.1804 -0.45914,2.5426 q -0.0847,0.4691 0.15785,0.8567 0.23016,0.3698 0.63878,0.4436 0.37836,0.068 0.68358,-0.064 0.29281,-0.1503 0.342,-0.4227 l 0.0547,-0.3027 q 0.31702,-1.7556 1.64592,-2.7971 1.31651,-1.0594 2.87534,-0.7779 1.51344,0.2733 2.44586,1.2543 0.93516,0.9659 0.73292,2.0858 -0.15304,0.8476 -0.78239,1.3903 -0.64448,0.54 -1.45607,0.5341 -0.59423,0 -1.03818,0.297 -0.45908,0.2921 -0.5438,0.7613 -0.0738,0.4086 0.29531,0.7878 0.3567,0.3614 0.93181,0.4652 0.22701,0.041 0.6327,-0.042 0.39055,-0.086 0.95705,-0.2804 l 0.15931,0.9352 q -0.6531,0.2415 -1.13992,0.3411 -0.50196,0.097 -0.78951,0.045 -0.98374,-0.1777 -1.57333,-0.8936 -0.5896,-0.716 -0.44202,-1.5332 0.14758,-0.8173 0.76873,-1.3146 0.62388,-0.5124 1.4094,-0.4487 0.5833,0.058 1.05332,-0.2943 0.45488,-0.3554 0.55873,-0.9305 z"
           style="font-style:normal;font-variant:normal;font-weight:600;font-stretch:normal;font-size:15.7482px;line-height:1.25;font-family:'Noto Sans Gujarati';-inkscape-font-specification:'Noto Sans Gujarati Semi-Bold';white-space:pre;fill:#a80030;fill-opacity:1"
           id="path128199" />
        <path
           d="m 547.2339,2539.6799 q 2.14081,0.9578 2.24878,3.3901 l -0.91786,0.1875 q -0.086,-1.8413 -1.77058,-2.595 -1.1792,-0.5276 -2.30523,-0.1384 -1.12604,0.3891 -1.66619,1.5964 -0.54015,1.2073 -0.11978,2.3389 0.41649,1.1214 1.53307,1.7136 -0.35446,-0.3186 -0.37328,-0.9167 -0.0157,-0.6051 0.21043,-1.1105 0.39883,-0.8914 1.27957,-1.2219 0.87685,-0.3405 1.76827,0.058 0.89142,0.3988 1.18046,1.2779 0.28203,0.8759 -0.15449,1.8516 -0.55585,1.2423 -1.65177,1.4512 -1.09278,0.2019 -2.34919,-0.3603 -1.62842,-0.7285 -2.27819,-2.2323 -0.65365,-1.514 0.10005,-3.1986 0.7537,-1.6845 2.2307,-2.2368 1.477,-0.5522 3.03523,0.145 z m 0.0881,5.0938 q -0.20335,-0.4869 -0.69468,-0.7067 -0.49134,-0.2198 -1.032,-0.066 -0.53753,0.147 -0.76992,0.6664 -0.23239,0.5194 -0.006,1.0501 0.22902,0.5237 0.72036,0.7435 0.49133,0.2199 1.00632,0.029 0.51112,-0.201 0.74351,-0.7204 0.23239,-0.5194 0.0329,-0.9962 z"
           style="font-style:normal;font-variant:normal;font-weight:600;font-stretch:normal;font-size:15.7482px;line-height:1.25;font-family:'Noto Sans Gujarati';-inkscape-font-specification:'Noto Sans Gujarati Semi-Bold';white-space:pre;fill:#a80030;fill-opacity:1"
           id="path128201" />
        <path
           d="m 547.82559,2537.8302 q 1.93726,0.8667 3.33357,-0.5219 l 0.39858,0.7848 q -0.87022,0.8153 -1.93714,0.9782 -1.06377,0.1559 -2.11663,-0.3152 -1.45996,-0.6532 -2.09442,-1.7205 -0.64147,-1.0704 -0.0228,-2.4532 0.61866,-1.3827 1.75467,-1.7 1.13213,-0.3275 2.41661,0.2472 l 1.02478,0.4585 q 1.64948,0.738 2.4283,-1.0027 0.6375,-1.4249 -0.89265,-2.1095 l -3.95874,-1.7712 0.4585,-1.0248 3.95874,1.7712 q 0.737,0.3298 1.35378,0.024 0.60975,-0.3084 0.93635,-1.0384 0.4271,-0.9546 -0.0487,-1.774 -0.48282,-0.8225 -1.40933,-1.2371 -1.93024,-0.8636 -3.32063,0.3424 l -0.4383,-0.8279 q 1.80878,-1.4821 4.14612,-0.4364 1.30555,0.5841 1.90139,1.7942 0.59899,1.2031 -0.0417,2.635 -0.64064,1.4319 -1.79216,1.7085 0.57682,1.0079 -10e-4,2.2994 -0.58098,1.2985 -1.62833,1.7565 -1.04421,0.4511 -2.22341,-0.077 l -1.16516,-0.5213 q -0.78613,-0.3518 -1.50801,-0.1693 -0.72889,0.1794 -1.12458,1.0638 -0.39569,0.8844 0.12241,1.6469 0.52123,0.7555 1.48986,1.1889 z"
           style="font-style:normal;font-variant:normal;font-weight:600;font-stretch:normal;font-size:15.7482px;line-height:1.25;font-family:'Noto Sans Gujarati';-inkscape-font-specification:'Noto Sans Gujarati Semi-Bold';white-space:pre;fill:#a80030;fill-opacity:1"
           id="path128203" />
        <path
           d="m 566.55754,2513.4616 -3.26243,4.4446 -0.5083,-0.3732 q 0.0153,-0.9045 -0.42708,-1.7443 -0.44857,-0.8443 -1.21102,-1.404 -0.76246,-0.5596 -1.72235,-0.5774 -0.95989,-0.018 -1.55141,0.788 -0.40951,0.5579 -0.26798,1.1578 0.14607,0.5937 0.72876,1.0214 l 3.7627,2.762 -0.64157,0.874 -3.83708,-2.8165 q -0.61368,-0.4505 -1.33643,-0.1416 -0.7244,0.2981 -1.23857,0.9986 -0.70071,0.9546 -0.4267,2.0238 0.26781,1.0646 1.17192,1.9381 -0.54036,-0.7973 0.18311,-1.7829 0.56421,-0.7686 1.38648,-0.8233 0.82681,-0.061 1.59547,0.5034 0.76865,0.5643 0.92535,1.4424 0.15049,0.8735 -0.42737,1.6608 -1.34229,1.8287 -3.81562,0.013 -1.49393,-1.0966 -1.89752,-2.652 -0.39905,-1.5615 0.63837,-2.9749 1.03743,-1.4133 2.28965,-1.5339 -0.22844,-1.2742 0.39947,-2.1296 0.99193,-1.3513 2.31768,-1.3512 1.31955,0 2.58411,0.9239 1.26457,0.9282 1.61739,2.3318 l 1.65624,-2.2563 -5.00247,-3.672 0.61427,-0.8368 z m -7.85166,9.3842 q 0.32306,-0.4401 0.21827,-0.9081 -0.11099,-0.4726 -0.55731,-0.8002 -0.44632,-0.3276 -0.94446,-0.3117 -0.4998,0.01 -0.82741,0.4515 -0.3276,0.4463 -0.19802,0.9325 0.12339,0.4816 0.56971,0.8092 0.44631,0.3277 0.93206,0.3027 0.4841,-0.036 0.80716,-0.4759 z"
           style="font-style:normal;font-variant:normal;font-weight:600;font-stretch:normal;font-size:15.7482px;line-height:1.25;font-family:'Noto Sans Gujarati';-inkscape-font-specification:'Noto Sans Gujarati Semi-Bold';white-space:pre;fill:#a80030;fill-opacity:1"
           id="path128205" />
        <path
           d="m 568.01359,2511.4779 -0.59151,0.8059 -6.85592,-5.0324 q -0.90503,-0.6644 -1.5284,0.1849 -0.25936,0.3533 -0.14876,0.7874 0.10604,0.4403 0.49037,0.7224 0.37813,0.2776 0.67079,0.3207 l -0.61426,0.8369 q -0.39884,-0.1974 -0.68398,-0.4067 -0.71907,-0.5278 -0.86093,-1.3092 -0.1464,-0.7752 0.39051,-1.5066 0.53692,-0.7315 1.28895,-0.8854 0.75658,-0.16 1.48184,0.3724 z"
           style="font-style:normal;font-variant:normal;font-weight:600;font-stretch:normal;font-size:15.7482px;line-height:1.25;font-family:'Noto Sans Gujarati';-inkscape-font-specification:'Noto Sans Gujarati Semi-Bold';white-space:pre;fill:#a80030;fill-opacity:1"
           id="path128207" />
        <path
           d="m 575.01742,2499.5811 q 1.18965,1.2457 1.20626,2.8885 0.0113,1.6374 -1.4679,3.0501 -0.77852,0.7435 -1.39291,0.7348 -0.10197,0.6503 -0.94166,1.4523 -1.50144,1.4339 -3.24774,1.4536 -1.74074,0.014 -3.04191,-1.3481 -0.94534,-0.9898 -1.08367,-2.0699 -0.13277,-1.0853 0.61795,-1.8023 0.92867,-0.8869 2.0579,-0.5618 -0.17832,-1.2333 0.99503,-2.3539 0.81745,-0.7807 1.98936,-0.6559 1.16659,0.1193 2.03227,1.0258 1.52423,1.5959 1.10609,3.6966 0.26492,-0.168 0.5096,-0.4017 0.87862,-0.8391 0.88081,-2.1172 0.002,-1.278 -1.04936,-2.3791 -1.05156,-1.101 -2.54831,-1.0539 l 0.12135,-1.0197 q 1.86008,-7e-4 3.25684,1.4618 z m -2.24812,5.9962 q 0.31154,-0.776 0.15353,-1.7096 -0.15801,-0.9337 -0.81656,-1.6233 -0.65855,-0.6895 -1.4487,-0.86 -0.79014,-0.1704 -1.4352,0.4456 -0.64506,0.6161 -0.48911,1.4029 0.15063,0.7812 0.79856,1.4596 1.3596,1.4236 3.23748,0.8848 z m -0.53497,1.032 q -2.08201,0.1914 -3.54782,-1.3434 -1.46581,-1.5348 -2.38336,-0.6585 -0.4115,0.393 -0.20601,1.1537 0.20575,0.7499 0.77402,1.3449 1.01438,1.0621 2.40622,1.0832 1.39184,0.021 2.53182,-1.0676 0.26692,-0.2549 0.42513,-0.5123 z"
           style="font-style:normal;font-variant:normal;font-weight:600;font-stretch:normal;font-size:15.7482px;line-height:1.25;font-family:'Noto Sans Gujarati';-inkscape-font-specification:'Noto Sans Gujarati Semi-Bold';white-space:pre;fill:#a80030;fill-opacity:1"
           id="path128209" />
        <path
           d="m 586.70331,2492.7651 q 0.66424,0.943 0.6474,2.0782 -0.0168,1.1351 -0.9516,1.7842 -0.93476,0.6492 -1.96199,0.2484 -1.02722,-0.4007 -1.70268,-1.3733 -1.02635,-1.478 -0.4795,-3.6833 -0.4337,0.077 -0.9895,0.4625 -0.55142,0.3923 -0.57668,1.0839 -0.0253,0.6916 0.35826,1.2304 l 2.59658,3.739 -0.85266,0.5921 -2.59657,-3.739 q -0.39475,-0.5684 -1.09337,-0.7386 -0.69862,-0.1702 -1.27144,0.2182 -0.83177,0.5683 -0.89739,1.6062 -0.0656,1.038 0.53967,1.9096 0.6116,0.8672 1.50707,1.2938 0.89546,0.4267 1.85566,0.2186 l -0.19947,0.953 q -1.16986,0.1758 -2.2327,-0.3031 -1.06283,-0.479 -1.74952,-1.4813 -0.87916,-1.2525 -0.72705,-2.6781 0.1521,-1.4257 1.3774,-2.2766 1.22529,-0.8509 2.34743,-0.3944 -0.0168,-1.224 1.1895,-2.0618 0.84002,-0.5833 1.60338,-0.7109 0.15474,-0.613 -0.13475,-1.0299 -0.28948,-0.4168 -0.74002,-0.5533 -0.45054,-0.1365 -0.79792,0.1047 -0.63791,0.443 -0.78036,1.4782 l -0.82406,-0.1486 q -0.0568,-1.3087 1.12423,-2.1289 0.77687,-0.5395 1.53197,-0.3149 0.75073,0.2182 1.21811,0.9048 0.4737,0.6821 0.42353,1.6344 1.93198,0.1937 3.23904,2.0758 z m -0.88037,0.5927 q -1.02635,-1.478 -2.61008,-1.642 -0.55597,1.9495 0.30809,3.1938 0.443,0.6379 1.11319,0.9963 0.6702,0.3584 1.23863,-0.036 0.56844,-0.3947 0.48177,-1.1397 -0.0867,-0.7449 -0.5316,-1.3721 z"
           style="font-style:normal;font-variant:normal;font-weight:600;font-stretch:normal;font-size:15.7482px;line-height:1.25;font-family:'Noto Sans Gujarati';-inkscape-font-specification:'Noto Sans Gujarati Semi-Bold';white-space:pre;fill:#a80030;fill-opacity:1"
           id="path128211" />
        <path
           d="m 602.60305,2478.009 0.34436,0.9643 -1.52359,0.5441 1.58406,4.4358 -5.78579,2.0661 q 0.48211,1.35 1.73291,1.9906 1.2508,0.6406 2.52367,0.1861 0.79073,-0.2824 1.41477,-0.7879 0.64333,-0.5125 1.03733,-1.1751 l 0.48903,0.1516 q -0.38023,1.0056 -1.05112,1.7453 -0.67778,0.7205 -1.54565,1.0304 -1.67787,0.5992 -3.31438,-0.2081 -1.62412,-0.8335 -2.25085,-2.5885 l -0.67501,0.241 q -0.27,0.097 -0.52347,0.056 -0.23419,-0.047 -0.28928,-0.2011 -0.17218,-0.4822 0.248,-1.4368 0.43258,-0.9808 0.89544,-1.1461 0.19286,-0.069 0.38985,0.056 0.21627,0.1185 0.29892,0.3499 l 0.27548,0.7714 4.82149,-1.7218 -1.2397,-3.4714 -7.71438,2.7548 -0.34436,-0.9643 z"
           style="font-style:normal;font-variant:normal;font-weight:600;font-stretch:normal;font-size:15.7482px;line-height:1.25;font-family:'Noto Sans Gujarati';-inkscape-font-specification:'Noto Sans Gujarati Semi-Bold';white-space:pre;fill:#a80030;fill-opacity:1"
           id="path128213" />
        <path
           d="m 593.38036,2477.4536 q -0.13086,-0.3665 0.18461,-0.7618 0.29619,-0.3885 0.85548,-0.5882 1.42716,-0.5097 3.02097,0.1172 1.57452,0.6337 2.86387,2.1738 l -0.50143,0.1791 q -0.87748,-1.0566 -2.01119,-1.3693 -1.21224,-0.35 -2.31154,0.043 -0.17357,0.062 -0.44771,0.2686 -0.27414,0.2066 -0.44771,0.2686 -0.40501,0.1446 -0.74388,0.048 -0.36505,-0.1088 -0.46147,-0.3788 z"
           style="font-style:normal;font-variant:normal;font-weight:600;font-stretch:normal;font-size:15.7482px;line-height:1.25;font-family:'Noto Sans Gujarati';-inkscape-font-specification:'Noto Sans Gujarati Semi-Bold';white-space:pre;fill:#a80030;fill-opacity:1"
           id="path128215" />
        <path
           d="m 610.21248,2474.973 q -0.11998,-0.7481 -0.73002,-1.1896 -0.59307,-0.4648 -1.34123,-0.3449 -0.66727,0.1071 -1.065,0.7308 -0.38076,0.6003 -0.26078,1.3485 l 0.227,1.4154 2.02204,-0.3242 0.16214,1.011 -2.02204,0.3243 1.45926,9.0991 -1.01102,0.1622 -1.45926,-9.0992 -2.02204,0.3243 -0.16214,-1.011 2.02204,-0.3243 -0.227,-1.4155 q -0.18808,-1.1727 0.44734,-2.125 0.63542,-0.9523 1.72732,-1.1274 1.13235,-0.1816 2.07412,0.5177 0.89809,0.6856 1.10963,1.8754 l 0.24722,1.4122 -0.97058,0.1556 z"
           style="font-style:normal;font-variant:normal;font-weight:600;font-stretch:normal;font-size:15.7482px;line-height:1.25;font-family:'Noto Sans Gujarati';-inkscape-font-specification:'Noto Sans Gujarati Semi-Bold';white-space:pre;fill:#a80030;fill-opacity:1"
           id="path128217" />
        <path
           d="m 618.8714,2475.0362 0.16214,1.011 -2.02205,0.3243 1.45927,9.0992 -1.01102,0.1621 -0.3405,-2.1231 q -0.55148,0.441 -1.10869,0.717 -0.55721,0.2761 -1.10316,0.3636 -0.8897,0.1427 -1.97454,-0.2848 -1.06462,-0.4307 -2.12295,-1.3395 0.39202,-0.7888 0.8197,-1.3552 0.44466,-0.5898 0.89428,-0.89 -0.92709,-0.3491 -1.66265,-1.1852 -0.73556,-0.8361 -1.12909,-1.9967 l -0.90992,0.1459 -0.16214,-1.011 z m -8.12824,2.3406 q 0.43321,1.2786 1.54323,1.9924 1.127,0.6904 2.38067,0.4893 l 1.81983,-0.2918 -0.48642,-3.0331 z m 1.38107,5.3784 q 0.72088,0.4859 1.39959,0.7089 0.67548,0.2027 1.22143,0.1152 0.50551,-0.081 1.05623,-0.3975 0.5677,-0.34 1.12319,-0.8854 l -0.27564,-1.7187 -1.81983,0.2919 q -0.22243,0.036 -0.49178,0.037 -0.25237,-0.022 -0.55167,-0.077 -0.49731,0.3909 -0.9145,0.8933 -0.42044,0.4823 -0.74702,1.0324 z"
           style="font-style:normal;font-variant:normal;font-weight:600;font-stretch:normal;font-size:15.7482px;line-height:1.25;font-family:'Noto Sans Gujarati';-inkscape-font-specification:'Noto Sans Gujarati Semi-Bold';white-space:pre;fill:#a80030;fill-opacity:1"
           id="path128219" />
        <path
           d="m 621.76853,2475.0772 q 0.77676,0.047 1.4065,0.8243 0.65018,0.7782 0.8846,1.9824 l -0.0187,0.3066 q 0.79864,-0.6489 1.60527,-1.0922 0.80663,-0.4433 1.57913,-0.6629 0.34035,1.1491 0.48875,2.0814 0.14839,0.9323 0.10483,1.6477 0.40456,-0.2421 1.07734,-0.5088 0.69322,-0.2656 1.65467,-0.5558 l 0.2116,-3.475 3.06615,0.1867 -0.0622,1.0221 -2.0441,-0.1245 -0.56014,9.1984 -1.02204,-0.062 0.34853,-5.7235 q -0.7062,0.1417 -1.40315,0.4685 -0.69572,0.3065 -1.34131,0.8006 -0.0747,1.2264 -0.57791,2.078 -0.50198,0.8311 -1.13565,0.7926 -0.42926,-0.026 -0.71969,-0.3106 -0.26999,-0.2832 -0.24634,-0.6715 0.0398,-0.6541 0.48724,-1.2629 0.44865,-0.6292 1.1952,-1.0967 0.0585,-0.9607 0.004,-1.7437 -0.0549,-0.783 -0.2257,-1.3473 -0.78121,0.3627 -1.42058,0.7547 -0.63937,0.3919 -1.13814,0.8334 -0.0772,1.2673 -0.62253,2.1369 -0.52491,0.8707 -1.19946,0.8296 -0.38838,-0.024 -0.63668,-0.326 -0.24706,-0.3228 -0.22092,-0.752 0.0336,-0.5519 0.46057,-1.1619 0.44865,-0.6293 1.22187,-1.1977 0.0697,-1.1447 -0.31101,-1.968 -0.35903,-0.8425 -0.95182,-0.8786 l -1.0016,-0.061 0.0622,-1.0221 z"
           style="font-style:normal;font-variant:normal;font-weight:600;font-stretch:normal;font-size:15.7482px;line-height:1.25;font-family:'Noto Sans Gujarati';-inkscape-font-specification:'Noto Sans Gujarati Semi-Bold';white-space:pre;fill:#a80030;fill-opacity:1"
           id="path128221" />
        <path
           d="m 645.09418,2478.7043 -0.25626,0.9914 -4.36196,-1.1275 -0.56376,2.181 q 1.36201,1.1135 1.99217,2.4397 0.63529,1.3065 0.35341,2.3969 -0.29726,1.15 -1.3203,1.7528 -1.02304,0.6028 -2.17301,0.3055 l 0.25625,-0.9913 q 0.73361,0.1896 1.38237,-0.1927 0.67371,-0.3969 0.86334,-1.1305 0.18963,-0.7336 -0.61386,-2.1258 -0.77853,-1.4069 -1.49231,-1.5914 -0.71377,-0.1845 -2.0964,0.6637 -1.35767,0.8336 -1.5473,1.5672 -0.18963,0.7336 0.1875,1.4022 0.40208,0.6539 1.13568,0.8435 l -0.25625,0.9914 q -1.14998,-0.2973 -1.75276,-1.3203 -0.60278,-1.0231 -0.30552,-2.1731 0.28188,-1.0904 1.47068,-1.9254 1.19393,-0.8547 2.92495,-1.1687 l 0.56376,-2.181 -4.36196,-1.1275 0.25625,-0.9914 z"
           style="font-style:normal;font-variant:normal;font-weight:600;font-stretch:normal;font-size:15.7482px;line-height:1.25;font-family:'Noto Sans Gujarati';-inkscape-font-specification:'Noto Sans Gujarati Semi-Bold';white-space:pre;fill:#a80030;fill-opacity:1"
           id="path128223" />
        <path
           d="m 633.99056,2486.4736 q 0,0 -0.36766,1.2587 2.01724,0.5426 4.06553,3.4199 l 0.97666,0.2313 q -1.91788,-4.2819 -4.67453,-4.9099 z"
           style="font-style:normal;font-variant:normal;font-weight:600;font-stretch:normal;font-size:15.7482px;line-height:1.25;font-family:'Noto Sans Gujarati';-inkscape-font-specification:'Noto Sans Gujarati Semi-Bold';white-space:pre;fill:#a80030;fill-opacity:1"
           id="path128225" />
        <path
           d="m 673.19702,2511.2605 q 0.9851,0.9826 1.61974,0.8338 0.68223,-0.1588 1.32105,-1.1832 0.56211,-0.8815 0.98192,-2.5084 l 1.4335,2.4487 q -0.58329,1.4998 -0.81296,1.8838 -1.01188,1.7418 -2.6659,2.0061 -1.5417,0.2432 -3.2688,-2.0069 -0.90903,-1.1875 -1.11512,-2.3767 l 1.6922,-0.9906 q 0.20512,1.2788 0.81437,1.8934 z"
           style="font-style:normal;font-variant:normal;font-weight:600;font-stretch:normal;font-size:15.7482px;line-height:1.25;font-family:'Noto Sans Gujarati';-inkscape-font-specification:'Noto Sans Gujarati Semi-Bold';white-space:pre;fill:#a80030;fill-opacity:1"
           id="path128227" />
        <path
           d="m 666.96336,2507.8732 0.7037,0.9139 -0.91389,0.7037 -0.70371,-0.9139 z m 4.70098,-1.1547 q -1.10887,0.8538 -2.01887,0.8946 -0.86077,0.042 -1.46126,-0.7382 l -1.67481,-2.1751 1.55972,-1.201 0.45975,0.5971 q 0.31901,0.4143 0.79351,0.476 0.52842,0.069 1.17424,-0.4287 l 0.88343,-0.6802 1.67951,2.1812 z"
           style="font-style:normal;font-variant:normal;font-weight:600;font-stretch:normal;font-size:15.7482px;line-height:1.25;font-family:'Noto Sans Gujarati';-inkscape-font-specification:'Noto Sans Gujarati Semi-Bold';white-space:pre;fill:#a80030;fill-opacity:1"
           id="path128229" />
        <path
           d="m 663.52009,2503.918 0.82541,0.8056 -0.80566,0.8254 -0.82542,-0.8056 z m -1.3757,-1.3428 0.82542,0.8057 -0.80567,0.8254 -0.82541,-0.8057 z m 4.53128,2.3812 -1.3812,-1.3481 q -0.6053,-0.5908 -0.44357,-1.6042 -1.00916,0.1862 -1.61447,-0.4046 l -1.3812,-1.3482 1.375,-1.4087 0.53927,0.5264 q 0.37419,0.3652 0.85264,0.3594 0.53282,-0.01 1.10216,-0.5897 l 0.77881,-0.7979 1.96999,1.9228 -0.77881,0.7979 q -0.56933,0.5833 -0.56288,1.1162 0.006,0.4784 0.37999,0.8436 l 0.53927,0.5264 z"
           style="font-style:normal;font-variant:normal;font-weight:600;font-stretch:normal;font-size:15.7482px;line-height:1.25;font-family:'Noto Sans Gujarati';-inkscape-font-specification:'Noto Sans Gujarati Semi-Bold';white-space:pre;fill:#a80030;fill-opacity:1"
           id="path128231" />
        <path
           d="m 658.26387,2489.9907 0.94508,0.6612 -0.66123,0.9451 -0.94508,-0.6613 z m 4.23453,5.4027 q -0.17557,0.7875 -0.16106,0.9009 0.12006,1.5855 0.78162,2.0484 l 0.30243,0.2116 -1.13291,1.6192 -0.39693,-0.2777 q -1.05409,-0.7469 -1.06493,-1.3081 -0.432,0.6174 -1.73649,1.2344 -1.76998,0.8263 -3.43007,0.087 -1.26508,-0.566 -2.14716,-1.1831 -1.2097,-0.8464 -1.97972,-1.7981 -1.76248,-2.1622 -0.16231,-4.4493 0.61715,-0.8821 1.64502,-1.8147 l 2.25559,1.5782 q -0.96993,0.8229 -1.55622,1.6609 -0.78466,1.1215 0.15554,2.4738 0.25396,0.3748 0.7454,0.7186 0.35283,0.2468 0.81211,0.4086 1.59517,0.5906 2.64261,-0.1688 0.6267,-0.4531 1.15127,-1.2028 0.72295,-1.0333 1.06521,-2.8773 l 2.2556,1.5782 q -0.0156,0.4113 -0.0446,0.56 z"
           style="font-style:normal;font-variant:normal;font-weight:600;font-stretch:normal;font-size:15.7482px;line-height:1.25;font-family:'Noto Sans Gujarati';-inkscape-font-specification:'Noto Sans Gujarati Semi-Bold';white-space:pre;fill:#a80030;fill-opacity:1"
           id="path128233" />
        <path
           d="m 680.33035,2530.6099 q -0.52253,-1.528 0.12941,-3.3763 0.67146,-1.8387 2.31285,-3.4078 l 0.75851,0.6021 q -1.45297,1.4071 -2.06812,2.9827 -0.59562,1.5853 -0.15769,2.8658 0.26873,0.7858 1.05943,1.1493 0.79568,0.378 1.63968,0.089 0.23283,-0.08 0.35768,-0.2849 0.12486,-0.2052 0.0602,-0.3944 -0.10948,-0.3201 -0.50728,-0.818 -0.37828,-0.4882 -0.48279,-0.7938 -0.2538,-0.7421 0.37394,-1.9483 0.62775,-1.2061 1.38444,-1.4649 0.52386,-0.1792 1.01206,0.06 0.4882,0.2394 0.66736,0.7633 l 0.89576,2.6193 1.55703,-0.5325 -2.34392,-6.8539 0.8731,-0.2986 3.26955,9.5605 -0.8731,0.2986 -0.5922,-1.7317 -2.51745,0.861 -1.22918,-3.5943 q -0.0398,-0.1164 -0.15699,-0.1739 -0.11716,-0.057 -0.23358,-0.018 -0.40744,0.1393 -0.83411,0.9354 -0.41211,0.7911 -0.27775,1.184 0.10451,0.3056 0.48279,0.7938 0.38325,0.5028 0.49274,0.823 0.20403,0.5966 -0.10275,1.1729 -0.30181,0.5908 -0.94209,0.8098 -1.25144,0.4279 -2.43271,-0.1271 -1.16671,-0.5599 -1.57478,-1.7531 z"
           style="font-style:normal;font-variant:normal;font-weight:600;font-stretch:normal;font-size:15.7482px;line-height:1.25;font-family:'Noto Sans Gujarati';-inkscape-font-specification:'Noto Sans Gujarati Semi-Bold';white-space:pre;fill:#a80030;fill-opacity:1"
           id="path128235" />
        <path
           d="m 690.1461,2528.2769 3.03943,-5.0379 0.81099,0.4704 -3.52197,5.5279 z"
           style="font-style:normal;font-variant:normal;font-weight:600;font-stretch:normal;font-size:15.7482px;line-height:1.25;font-family:'Noto Sans Gujarati';-inkscape-font-specification:'Noto Sans Gujarati Semi-Bold';white-space:pre;fill:#a80030;fill-opacity:1"
           id="path128237" />
        <path
           d="m 690.52332,2532.0903 0.90212,-0.194 0.36538,1.699 q 0.15132,-0.1741 0.4627,-0.3355 0.31461,-0.1463 0.76567,-0.2433 1.20283,-0.2587 2.24528,0.4924 1.06072,0.763 1.34527,2.0861 0.33951,1.5787 -0.48403,3.4547 -0.82354,1.876 -2.45835,3.3445 l -0.25544,-1.1878 q 1.26232,-1.1524 1.9132,-2.6609 0.66914,-1.4968 0.39753,-2.7598 -0.19724,-0.9171 -0.93769,-1.4343 -0.72542,-0.5204 -1.55236,-0.3426 -0.45106,0.097 -0.76567,0.2434 -0.31138,0.1613 -0.4627,0.3354 l 0.36861,1.714 -0.90212,0.1941 -0.36861,-1.7141 -9.11142,1.9595 -0.21341,-0.9923 9.11142,-1.9595 z"
           style="font-style:normal;font-variant:normal;font-weight:600;font-stretch:normal;font-size:15.7482px;line-height:1.25;font-family:'Noto Sans Gujarati';-inkscape-font-specification:'Noto Sans Gujarati Semi-Bold';white-space:pre;fill:#a80030;fill-opacity:1"
           id="path128239" />
        <path
           d="m 686.2441,2540.9387 q 0.0776,0.3609 0.23249,0.6422 0.16991,0.2781 0.43214,0.4734 l 1.61314,-3.1785 q -0.20953,-0.097 -0.48453,-0.1318 -0.25673,-0.023 -0.57247,0.044 -0.66156,0.1423 -1.02952,0.772 -0.34969,0.6415 -0.19125,1.3782 z m 1.00736,-3.1425 q 1.18779,-0.2555 2.23234,0.4323 1.04779,0.7028 1.31294,1.9357 0.0841,0.3909 0.065,0.741 -0.004,0.347 -0.0844,0.6317 l -0.87658,-0.1261 q 0.0567,-0.2482 0.0469,-0.5135 0.008,-0.2535 -0.053,-0.5391 -0.0938,-0.4361 -0.28196,-0.7259 -0.16992,-0.2781 -0.38267,-0.3897 l -1.56787,3.389 0.45559,0.2166 4.5106,-0.97 -1.24489,-5.7886 0.90213,-0.194 1.82367,8.4799 -0.90212,0.194 -0.36538,-1.699 -9.11142,1.9595 -0.21341,-0.9923 3.20253,-0.6888 q -0.5846,-0.3776 -0.97811,-0.8908 -0.37847,-0.5163 -0.50458,-1.1027 -0.24897,-1.1577 0.33999,-2.1496 0.59219,-0.9768 1.67474,-1.2096 z"
           style="font-style:normal;font-variant:normal;font-weight:600;font-stretch:normal;font-size:15.7482px;line-height:1.25;font-family:'Noto Sans Gujarati';-inkscape-font-specification:'Noto Sans Gujarati Semi-Bold';white-space:pre;fill:#a80030;fill-opacity:1"
           id="path128241" />
        <path
           d="m 687.27585,2550.0184 q 0.0709,0.7966 0.5626,1.463 0.50835,0.6804 1.31247,1.0412 l 4.68745,-0.4175 -0.30829,-3.4619 q -0.44077,0.4252 -0.95782,0.6874 -0.50173,0.2609 -1.00724,0.3059 -0.88847,0.079 -1.64055,-0.5642 -0.75072,-0.6279 -1.02867,-1.6685 -0.78292,0.2241 -1.24236,0.9598 -0.45944,0.7357 -0.37759,1.6548 z m 5.95822,-4.6994 0.9191,-0.082 0.84986,9.5434 -0.91911,0.082 -0.15415,-1.731 -9.283,0.8266 -0.0914,-1.0263 3.15561,-0.281 q -0.6353,-0.5456 -1.01838,-1.2063 -0.36639,-0.6467 -0.42777,-1.336 -0.13096,-1.4706 0.83189,-2.6217 0.97953,-1.1372 2.51138,-1.2736 0.10368,1.1642 0.6093,1.814 0.52094,0.6484 1.25623,0.5829 0.49019,-0.044 0.98782,-0.3504 0.51296,-0.3082 0.9595,-0.842 z"
           style="font-style:normal;font-variant:normal;font-weight:600;font-stretch:normal;font-size:15.7482px;line-height:1.25;font-family:'Noto Sans Gujarati';-inkscape-font-specification:'Noto Sans Gujarati Semi-Bold';white-space:pre;fill:#a80030;fill-opacity:1"
           id="path128243" />
        <path
           d="m 690.91274,2555.9322 q 0.21525,0 0.36406,0.2237 0.14882,0.2188 0.14212,0.5109 l -0.12413,5.412 2.65989,0.061 0.15233,-6.6421 0.92251,0.021 -0.21581,9.4095 -0.92251,-0.021 0.0399,-1.7374 -9.31728,-0.2137 0.0236,-1.0301 5.62727,0.129 0.0681,-2.9674 q 0.006,-0.246 -0.11313,-0.4333 -0.11877,-0.1873 -0.27252,-0.1908 l -1.03012,-0.024 q -0.24601,-0.01 -0.42698,-0.1636 -0.18097,-0.158 -0.17639,-0.3578 0.008,-0.3537 1.08838,-1.175 1.09565,-0.8209 1.51078,-0.8114 z"
           style="font-style:normal;font-variant:normal;font-weight:600;font-stretch:normal;font-size:15.7482px;line-height:1.25;font-family:'Noto Sans Gujarati';-inkscape-font-specification:'Noto Sans Gujarati Semi-Bold';white-space:pre;fill:#a80030;fill-opacity:1"
           id="path128245" />
        <path
           d="m 685.5471,2580.9366 q -0.31424,-0.6001 -0.99432,-0.8872 -0.68008,-0.2871 -1.34345,-0.1 -0.65518,0.2076 -0.90041,0.7885 -0.24523,0.5809 0.069,1.1809 0.32244,0.6203 1.00251,0.9074 0.68008,0.2871 1.33526,0.08 0.65518,-0.2076 0.89443,-0.7743 0.24524,-0.5809 -0.063,-1.1951 z m 3.84281,-3.3691 q 2.52196,1.0647 3.63726,3.4052 1.11531,2.3405 0.17624,4.5649 -0.6699,1.5869 -2.21921,2.2516 -1.54113,0.6848 -3.05714,0.045 l -7.83507,-3.3076 0.37084,-0.8784 7.83507,3.3076 q 1.21848,0.5144 2.45358,8e-4 1.2433,-0.4934 1.75769,-1.7119 0.80747,-1.9127 -0.20518,-3.9428 -1.01862,-2.0159 -3.24305,-2.9549 -1.79937,-0.7596 -3.43781,-0.5165 -1.63844,0.2431 -2.35937,1.3577 0.4052,-0.1294 0.84755,-0.1096 0.43638,0.034 0.86143,0.2134 0.93511,0.3948 1.33186,1.3135 0.39675,0.9187 0.0139,1.8255 -0.3828,0.9067 -1.31787,1.2632 -0.93507,0.3564 -1.87018,-0.038 -1.2043,-0.5084 -1.54659,-1.4375 -0.32812,-0.9231 0.21618,-2.2124 0.83738,-1.9836 3.05888,-2.6984 2.22151,-0.7148 4.53094,0.2601 z"
           style="font-style:normal;font-variant:normal;font-weight:600;font-stretch:normal;font-size:15.7482px;line-height:1.25;font-family:'Noto Sans Gujarati';-inkscape-font-specification:'Noto Sans Gujarati Semi-Bold';white-space:pre;fill:#a80030;fill-opacity:1"
           id="path128247" />
        <path
           d="m 678.99741,2587.1193 6.97081,2.9428 -0.37084,0.8784 -6.27657,-2.6497 -3.89381,9.2236 -0.69425,-0.2931 z"
           style="font-style:normal;font-variant:normal;font-weight:600;font-stretch:normal;font-size:15.7482px;line-height:1.25;font-family:'Noto Sans Gujarati';-inkscape-font-specification:'Noto Sans Gujarati Semi-Bold';white-space:pre;fill:#a80030;fill-opacity:1"
           id="path128249" />
        <path
           d="m 667.65794,2604.13 3.13209,3.2822 q -0.0136,-0.3484 0.16951,-0.7357 0.17198,-0.3767 0.52802,-0.7165 0.78995,-0.7538 2.00504,-0.6166 1.21457,0.159 2.12765,1.1158 1.29531,1.3574 1.28492,3.1955 2.3e-4,1.8492 -1.30153,3.0914 -1.0236,0.9768 -2.42579,0.9331 -1.40271,-0.022 -2.37949,-1.0455 l -6.26418,-6.5645 0.6787,-0.6476 6.26417,6.5644 q 0.75383,0.79 1.80762,0.8473 1.0644,0.068 1.79873,-0.6324 1.0236,-0.9767 0.98236,-2.4679 -0.0524,-1.4806 -1.13533,-2.6155 -0.70073,-0.7343 -1.55578,-0.9175 -0.86617,-0.1726 -1.36685,0.3052 -0.30041,0.2867 -0.45166,0.7074 -0.15126,0.4207 -0.10784,0.8894 l 0.91308,0.9569 -0.68982,0.6582 -5.22368,-5.474 6.43091,-6.1368 5.22368,5.4741 -0.68982,0.6582 -4.70344,-4.9288 z"
           style="font-style:normal;font-variant:normal;font-weight:600;font-stretch:normal;font-size:15.7482px;line-height:1.25;font-family:'Noto Sans Gujarati';-inkscape-font-specification:'Noto Sans Gujarati Semi-Bold';white-space:pre;fill:#a80030;fill-opacity:1"
           id="path128251" />
        <path
           d="m 653.69126,2612.6204 2.97659,6.1283 -0.85769,0.4166 -3.30583,-6.8061 6.64015,-3.2252 0.20829,0.4288 q 0.0941,-0.4047 0.37984,-0.7316 0.28576,-0.3269 0.68694,-0.5217 0.69168,-0.336 1.49245,0.01 0.78693,0.3529 1.1968,1.1968 l 2.39874,4.9386 -0.85768,0.4166 -2.39875,-4.9387 q -0.27548,-0.5671 -0.70551,-0.8541 -0.43714,-0.2664 -0.79682,-0.092 -0.56717,0.2755 -0.7395,0.9063 -0.17945,0.6514 0.12964,1.2877 l 2.31139,4.7588 -0.85769,0.4166 -2.97659,-6.1283 z"
           style="font-style:normal;font-variant:normal;font-weight:600;font-stretch:normal;font-size:15.7482px;line-height:1.25;font-family:'Noto Sans Gujarati';-inkscape-font-specification:'Noto Sans Gujarati Semi-Bold';white-space:pre;fill:#a80030;fill-opacity:1"
           id="path128253" />
        <path
           d="m 645.49815,2624.4433 q 0.0385,0.398 -0.21047,0.7002 -0.24892,0.3022 -0.64692,0.3406 -0.39801,0.039 -0.68486,-0.2119 -0.30216,-0.249 -0.34061,-0.647 -0.0385,-0.398 0.21047,-0.7001 0.23509,-0.2854 0.63309,-0.3239 0.398,-0.038 0.70017,0.2105 0.30216,0.2489 0.33913,0.6316 z m 2.72995,-7.7264 q 0.33981,-0.4809 0.27917,-1.1085 -0.0606,-0.6276 -0.48622,-1.0346 -0.4241,-0.3916 -0.97518,-0.3384 -0.55109,0.053 -0.89089,0.5341 -0.33981,0.4809 -0.28065,1.0932 0.0606,0.6277 0.48621,1.0346 0.42559,0.407 0.97667,0.3537 0.55108,-0.053 0.89089,-0.5341 z m -4.71134,0.3316 q -0.0976,-1.0104 -0.42734,-1.7047 -0.34505,-0.6928 -0.74306,-0.6544 -0.398,0.039 -0.60551,0.7692 -0.20603,0.7461 -0.10695,1.7718 0.071,0.7347 0.38099,1.3846 0.30999,0.6499 0.82247,1.1566 0.40599,-0.5954 0.58585,-1.2926 0.16454,-0.6958 0.0935,-1.4305 z m -2.76305,4.8249 -3.94942,0.3815 -0.0725,-0.7501 1.50017,-0.1449 -0.65516,-6.7814 0.94909,-0.092 0.65515,6.7814 1.50017,-0.1449 q 0.48985,-0.047 0.91899,-0.2433 0.43062,-0.1807 0.72546,-0.4873 -0.6779,-0.4598 -1.09602,-1.2692 -0.43342,-0.8079 -0.52955,-1.8029 -0.12718,-1.3165 0.33221,-2.3188 0.46087,-0.987 1.24157,-1.0625 0.76539,-0.074 1.42199,0.8051 0.64277,0.8959 0.76996,2.2124 0.0932,0.9644 -0.18201,1.7944 -0.27369,0.8453 -0.83424,1.4402 0.53273,0.3966 1.22698,0.5459 0.61476,0.126 1.2883,0.061 0.0918,-0.01 0.199,-0.019 1.7851,-0.2343 2.81732,-1.3846 1.10283,-1.219 0.95198,-2.7804 -0.0577,-0.597 -0.304,-1.0677 -0.24633,-0.4706 -0.62798,-0.7427 0.10811,0.1595 0.17178,0.3387 0.0651,0.1946 0.0844,0.3936 0.0902,0.9338 -0.4432,1.6497 -0.53194,0.7312 -1.40448,0.8155 -0.87255,0.084 -1.53315,-0.5162 -0.6606,-0.6006 -0.75229,-1.5497 -0.0902,-0.9338 0.45851,-1.6512 0.53341,-0.7159 1.39065,-0.7987 1.40832,-0.1361 2.49798,0.7475 1.07583,0.9004 1.21189,2.3087 0.18042,1.8676 -1.11602,3.3216 -1.29496,1.4693 -3.3309,1.666 -0.99501,0.096 -1.8453,-0.069 -0.86559,-0.1635 -1.44425,-0.5557 -0.39461,0.3935 -0.95708,0.6487 -0.57778,0.2567 -1.23601,0.3203 z"
           style="font-style:normal;font-variant:normal;font-weight:600;font-stretch:normal;font-size:15.7482px;line-height:1.25;font-family:'Noto Sans Gujarati';-inkscape-font-specification:'Noto Sans Gujarati Semi-Bold';white-space:pre;fill:#a80030;fill-opacity:1"
           id="path128255" />
        <path
           d="m 612.37707,2613.2904 q 0.29958,0.2876 0.89673,0.7648 0.67211,0.1548 1.616,0.037 1.45932,-0.1768 2.75321,-1.5249 0.83064,-0.8654 1.07816,-1.7896 0.29388,-1.0502 -0.25139,-1.9146 -0.12938,-0.2095 -0.37724,-0.3621 -0.31444,-0.2165 -0.38101,-0.2804 -0.42163,-0.4047 -0.0276,-0.8152 0.20766,-0.2164 0.4686,-0.2217 0.18617,0.061 0.47774,0.224 0.29158,0.1626 0.51904,0.3809 1.03188,0.9904 0.79931,2.6431 -0.21396,1.4999 -1.31392,2.757 -0.10095,0.1163 -0.81445,0.8597 -0.7135,0.7434 -2.67181,1.2513 l -1.80163,0.7222 -1.7806,-1.6983 z"
           style="font-style:normal;font-variant:normal;font-weight:600;font-stretch:normal;font-size:15.7482px;line-height:1.25;font-family:'Noto Sans Gujarati';-inkscape-font-specification:'Noto Sans Gujarati Semi-Bold';white-space:pre;fill:#a80030;fill-opacity:1"
           id="path128257" />
        <path
           d="m 604.04347,2605.2494 4.20519,4.0361 2.5718,-2.6796 q 0.0823,-0.2301 -0.0398,-0.3472 -0.43272,-0.4153 -2.89603,0.1301 -0.24385,0.043 -0.46021,-0.1646 -0.29403,-0.2822 -0.31383,-0.7169 -0.0943,-1.6785 0.93339,-2.7492 0.53246,-0.5548 1.4042,-1.0078 2.52052,-0.9382 4.07254,0.4875 0.96442,0.883 1.29963,2.3771 0.29192,1.2395 0.0822,2.413 -0.38096,2.1071 -1.81515,4.834 -0.13755,0.1877 -0.40403,0.1878 -0.27203,-0.01 -0.4773,-0.2023 -0.21636,-0.2077 -0.21174,-0.5123 1.16907,-2.3952 1.45384,-3.6247 0.42145,-1.1942 0.24313,-2.4632 -0.17832,-1.2689 -0.92726,-1.9878 -0.84326,-0.8093 -2.15015,-0.6248 -0.92036,0.2038 -1.58594,0.8973 -0.63363,0.6602 -0.73649,1.4781 1.33042,-0.098 1.91354,-0.039 1.06817,0.1086 1.67287,0.689 0.73766,0.9638 -0.40714,2.1565 l -2.27894,2.3745 3.25652,3.1255 -0.90518,0.9431 -8.40483,-8.0668 z"
           style="font-style:normal;font-variant:normal;font-weight:600;font-stretch:normal;font-size:15.7482px;line-height:1.25;font-family:'Noto Sans Gujarati';-inkscape-font-specification:'Noto Sans Gujarati Semi-Bold';white-space:pre;fill:#a80030;fill-opacity:1"
           id="path128259" />
        <path
           d="m 594.8635,2597.0669 q 0.0897,-0.1 0.17803,-0.1614 0.46693,-0.3252 0.8361,0.2048 0.10108,0.1451 0.13353,0.2724 -0.74245,2.8224 0.52765,4.6459 0.37795,0.5427 0.96503,1.0896 1.37553,0.9255 2.27154,0.3015 0.54265,-0.378 0.79029,-1.2064 l -0.80864,-1.1611 1.07268,-0.7471 0.66362,0.9528 6.67589,-4.6496 q 0.32812,-0.2286 0.72804,0.3456 0.3384,0.4859 -0.002,0.7232 l -6.66327,4.6409 0.9273,1.3314 -1.07269,0.7471 -0.68119,-0.978 q -0.23784,0.681 -0.83097,1.0941 -1.20519,0.8394 -2.76855,0.2228 -1.38858,-0.729 -2.24996,-1.9657 -1.73594,-2.4925 -0.69209,-5.7028 z"
           style="font-style:normal;font-variant:normal;font-weight:600;font-stretch:normal;font-size:15.7482px;line-height:1.25;font-family:'Noto Sans Gujarati';-inkscape-font-specification:'Noto Sans Gujarati Semi-Bold';white-space:pre;fill:#a80030;fill-opacity:1"
           id="path128261" />
        <path
           d="m 596.63709,2594.2854 0.65482,0.9401 6.71623,-4.659 q 0.19043,-0.076 0.43968,0.012 0.24295,0.093 0.38358,0.2951 0.16261,0.2334 0.12983,0.5093 l -0.86153,6.2975 q -0.0213,0.2116 -0.25475,0.3742 -0.30919,0.2154 -0.55022,0.1115 l -4.93886,-2.1264 -0.33442,0.2329 3.04998,4.3791 -1.07269,0.7471 -4.43434,-6.3667 z m 6.92446,-1.871 -4.05727,2.8258 3.50283,1.4773 z"
           style="font-style:normal;font-variant:normal;font-weight:600;font-stretch:normal;font-size:15.7482px;line-height:1.25;font-family:'Noto Sans Gujarati';-inkscape-font-specification:'Noto Sans Gujarati Semi-Bold';white-space:pre;fill:#a80030;fill-opacity:1"
           id="path128263" />
        <path
           d="m 592.87639,2584.4785 0.35391,1.0978 7.80898,-2.5175 q 0.51963,-0.1675 0.74141,0.5205 0.092,0.2854 0.0169,0.5035 l -1.91014,5.7785 q -0.0952,0.2811 -0.34402,0.3613 -0.22688,0.073 -0.50095,-1e-4 l -2.22662,-1.3181 -1.66265,2.6366 0.14864,0.4611 -1.24416,0.4011 -2.42548,-7.5236 z m 8.93979,2.6442 q 0.34397,-0.1109 0.66595,0.036 0.32197,0.1466 0.42343,0.4613 0.11089,0.344 -0.0601,0.6657 -0.17333,0.3145 -0.52203,0.4107 -0.33406,0.091 -0.64139,-0.06 -0.31702,-0.1564 -0.42791,-0.5003 -0.10146,-0.3147 0.0766,-0.6145 0.17074,-0.2974 0.48544,-0.3989 z m -1.49767,-2.4903 -6.69655,2.1588 1.03814,3.2202 1.50844,-2.288 q 0.14237,-0.1347 0.33265,-0.1961 0.28543,-0.092 0.49339,0.027 l 1.99883,1.2381 z"
           style="font-style:normal;font-variant:normal;font-weight:600;font-stretch:normal;font-size:15.7482px;line-height:1.25;font-family:'Noto Sans Gujarati';-inkscape-font-specification:'Noto Sans Gujarati Semi-Bold';white-space:pre;fill:#a80030;fill-opacity:1"
           id="path128265" />
        <path
           d="m 591.75803,2581.0095 0.33268,1.0319 7.83825,-2.5269 q 0.30007,-0.097 0.49826,0.518 0.17931,0.5563 -0.15002,0.6624 l -7.80899,2.5175 0.46717,1.4491 -1.24417,0.4011 -1.17735,-3.652 z"
           style="font-style:normal;font-variant:normal;font-weight:600;font-stretch:normal;font-size:15.7482px;line-height:1.25;font-family:'Noto Sans Gujarati';-inkscape-font-specification:'Noto Sans Gujarati Semi-Bold';white-space:pre;fill:#a80030;fill-opacity:1"
           id="path128267" />
        <path
           d="m 591.27625,2570.2675 0.0498,1.1446 8.38136,-0.365 q 0.37643,-0.016 0.40386,0.6136 0.0281,0.6453 -0.34833,0.6617 l -3.2035,0.1395 q -0.82901,0.2285 -1.24984,0.6394 -0.42851,0.4112 -0.53334,1.1854 -0.0357,0.2402 -0.0247,0.4937 0.0335,0.7682 0.49275,1.2408 0.4917,0.5097 1.25225,0.4766 0.18437,-0.01 0.37509,-0.047 0.44991,-0.097 0.69473,-0.3074 0.24448,-0.2184 0.49195,-0.7218 0.14762,-0.145 0.35504,-0.154 0.28425,-0.012 0.50872,0.1933 0.21645,0.1984 0.1814,0.454 -0.37737,1.0555 -1.25913,1.4864 -0.6483,0.313 -1.32434,0.3424 -1.07552,0.047 -1.89623,-0.5947 -0.82071,-0.6416 -1.03188,-1.7792 -0.0598,-0.313 -0.0735,-0.628 -0.0535,-1.2291 0.65953,-2.1761 l -2.79635,0.1218 0.25893,5.946 -1.32135,0.058 -0.3643,-8.366 z"
           style="font-style:normal;font-variant:normal;font-weight:600;font-stretch:normal;font-size:15.7482px;line-height:1.25;font-family:'Noto Sans Gujarati';-inkscape-font-specification:'Noto Sans Gujarati Semi-Bold';white-space:pre;fill:#a80030;fill-opacity:1"
           id="path128269" />
        <path
           d="m 595.01572,2553.4687 6.42872,2.7828 0.42155,-0.9738 q 0.7209,-1.6654 0.27404,-2.8979 -0.44381,-1.2395 -2.01747,-1.9206 -1.56661,-0.6782 -2.76397,-0.1575 -1.19737,0.5207 -1.92133,2.1932 z m -3.22958,1.828 1.2402,-2.8651 q 1.03859,-2.3993 1.89145,-3.421 0.84886,-1.0319 2.03095,-1.5173 1.03348,-0.4325 2.12076,-0.3891 1.08728,0.043 2.26577,0.5534 1.19259,0.5163 1.97536,1.2824 0.7757,0.7631 1.1677,1.8126 0.45202,1.2012 0.28462,2.5364 -0.17446,1.3322 -1.20083,3.7032 l -1.2402,2.8651 z"
           style="font-style:normal;font-variant:normal;font-weight:600;font-stretch:normal;font-size:15.7482px;line-height:1.25;font-family:'Noto Sans Gujarati';-inkscape-font-specification:'Noto Sans Gujarati Semi-Bold';white-space:pre;fill:#a80030;fill-opacity:1"
           id="path128271" />
        <path
           d="m 609.02173,2538.4945 0.64294,0.4492 -3.68639,5.2759 q 0.85147,0.473 1.59212,0.2588 0.74064,-0.2142 1.35724,-1.0967 0.49768,-0.7122 0.80938,-1.6014 0.30979,-0.8998 0.4317,-1.9872 l 1.73971,1.2156 q -0.25678,1.0119 -0.66485,1.9181 -0.40176,0.9107 -0.9611,1.7112 -1.3389,1.9162 -3.05393,2.3032 -1.71693,0.3763 -3.47555,-0.8525 -1.7271,-1.2068 -1.99001,-2.9383 -0.25851,-1.7378 1.01873,-3.5658 1.16273,-1.6641 2.86083,-1.9597 1.7025,-0.3019 3.37918,0.8696 z m -2.37087,1.7955 q -0.64293,-0.4492 -1.29799,-0.3441 -0.65696,0.094 -1.07978,0.6995 -0.45804,0.6556 -0.37242,1.3251 0.0793,0.6652 0.7022,1.2505 z"
           style="font-style:normal;font-variant:normal;font-weight:600;font-stretch:normal;font-size:15.7482px;line-height:1.25;font-family:'Noto Sans Gujarati';-inkscape-font-specification:'Noto Sans Gujarati Semi-Bold';white-space:pre;fill:#a80030;fill-opacity:1"
           id="path128273" />
        <path
           d="m 617.4613,2535.8064 q 0.78375,-0.4095 0.89354,-1.1957 0.11661,-0.7897 -0.45316,-1.8801 -0.56977,-1.0905 -1.28463,-1.4457 -0.70805,-0.3589 -1.49181,0.051 -0.78375,0.4095 -0.90361,1.2096 -0.1166,0.7897 0.4496,1.8733 0.56621,1.0836 1.28463,1.4457 0.72168,0.3517 1.50544,-0.058 z m -4.20381,-4.0936 q 0.15535,-0.9314 0.60492,-1.5654 0.44601,-0.6408 1.24339,-1.0574 1.41077,-0.7372 2.90477,-0.086 1.49045,0.6441 2.41276,2.4093 0.92232,1.7651 0.60346,3.3633 -0.32242,1.5913 -1.73319,2.3284 -0.79739,0.4167 -1.57457,0.4237 -0.78074,1e-4 -1.63406,-0.4042 l 0.57689,1.104 -2.43987,1.2749 -5.541,-10.6046 2.43987,-1.2748 z"
           style="font-style:normal;font-variant:normal;font-weight:600;font-stretch:normal;font-size:15.7482px;line-height:1.25;font-family:'Noto Sans Gujarati';-inkscape-font-specification:'Noto Sans Gujarati Semi-Bold';white-space:pre;fill:#a80030;fill-opacity:1"
           id="path128275" />
        <path
           d="m 622.68826,2526.7648 2.68524,-0.6064 1.89707,8.4008 -2.68524,0.6064 z m -0.7385,-3.2703 2.68524,-0.6064 0.49459,2.1902 -2.68524,0.6064 z"
           style="font-style:normal;font-variant:normal;font-weight:600;font-stretch:normal;font-size:15.7482px;line-height:1.25;font-family:'Noto Sans Gujarati';-inkscape-font-specification:'Noto Sans Gujarati Semi-Bold';white-space:pre;fill:#a80030;fill-opacity:1"
           id="path128277" />
        <path
           d="m 634.25351,2530.3496 q -0.85286,-0.1199 -1.32755,0.1085 -0.46708,0.2295 -0.54623,0.793 -0.0727,0.5178 0.22821,0.8629 0.30963,0.3386 0.92643,0.4252 0.76909,0.1081 1.37153,-0.3664 0.6035,-0.4821 0.7201,-1.3121 l 0.0439,-0.3122 z m 4.30969,-0.4429 -0.68353,4.8658 -2.74894,-0.3861 0.17757,-1.2641 q -0.65737,0.6997 -1.39298,0.9613 -0.73453,0.254 -1.71684,0.116 -1.32497,-0.1861 -2.04695,-1.0718 -0.71328,-0.8922 -0.53999,-2.1258 0.21072,-1.5001 1.33713,-2.0563 1.13402,-0.555 3.34231,-0.2448 l 1.60672,0.2257 0.0299,-0.2132 q 0.0909,-0.6473 -0.37755,-1.016 -0.4674,-0.3762 -1.5487,-0.5281 -0.8757,-0.123 -1.65417,-0.054 -0.77846,0.069 -1.47492,0.3286 l 0.29202,-2.0788 q 0.90565,-0.09 1.80394,-0.073 0.89936,0.01 1.78268,0.1339 2.30728,0.3241 3.1993,1.3812 0.9007,1.0506 0.61295,3.099 z"
           style="font-style:normal;font-variant:normal;font-weight:600;font-stretch:normal;font-size:15.7482px;line-height:1.25;font-family:'Noto Sans Gujarati';-inkscape-font-specification:'Noto Sans Gujarati Semi-Bold';white-space:pre;fill:#a80030;fill-opacity:1"
           id="path128279" />
        <path
           d="m 650.35125,2536.5858 -2.92515,4.3527 -2.29761,-1.5441 0.47609,-0.7084 1.76281,-2.6231 q 0.62192,-0.9255 0.81315,-1.3065 0.1976,-0.3768 0.207,-0.6113 0.0161,-0.3135 -0.13217,-0.5892 -0.14398,-0.282 -0.43757,-0.4793 -0.71481,-0.4804 -1.49642,-0.1996 -0.77732,0.2743 -1.43355,1.2508 l -2.36329,3.5166 -2.28484,-1.5355 4.80378,-7.1481 2.28484,1.5355 -0.70341,1.0467 q 0.93729,-0.278 1.71537,-0.1813 0.78237,0.09 1.48442,0.5621 1.23815,0.8321 1.36597,2.0205 0.13421,1.1927 -0.83942,2.6415 z"
           style="font-style:normal;font-variant:normal;font-weight:600;font-stretch:normal;font-size:15.7482px;line-height:1.25;font-family:'Noto Sans Gujarati';-inkscape-font-specification:'Noto Sans Gujarati Semi-Bold';white-space:pre;fill:#a80030;fill-opacity:1"
           id="path128281" />
      </g>
    </g>
    <text
       xml:space="preserve"
       style="font-style:normal;font-variant:normal;font-weight:normal;font-stretch:normal;font-size:22.5778px;line-height:1.25;font-family:Poppins;-inkscape-font-specification:Poppins;text-align:center;text-anchor:middle;fill:#999999;stroke-width:0.264583"
       x="527.16187"
       y="397.32449"
       id="text49494"><tspan
         sodipodi:role="line"
         id="tspan49492"
         style="font-style:normal;font-variant:normal;font-weight:normal;font-stretch:normal;font-size:22.5778px;font-family:Poppins;-inkscape-font-specification:Poppins;fill:#999999;stroke-width:0.264583"
         x="527.16187"
         y="397.32449" /></text>
    <text
       xml:space="preserve"
       style="font-size:22.5778px;line-height:1.25;font-family:sans-serif;text-align:center;text-anchor:middle;fill:#999999;stroke-width:0.264583"
       x="306.73013"
       y="154.72322"
       id="text49498"><tspan
         sodipodi:role="line"
         id="tspan49496"
         style="font-size:22.5778px;fill:#999999;stroke-width:0.264583"
         x="306.73013"
         y="154.72322" /></text>
    <text
       xml:space="preserve"
       style="font-size:22.5778px;line-height:1.25;font-family:sans-serif;text-align:center;text-anchor:middle;fill:#999999;stroke-width:0.264583"
       x="885.64001"
       y="155.76503"
       id="text49502"><tspan
         sodipodi:role="line"
         id="tspan49500"
         style="font-style:normal;font-variant:normal;font-weight:normal;font-stretch:normal;font-size:22.5778px;font-family:'Bangla Sangam MN';-inkscape-font-specification:'Bangla Sangam MN';fill:#999999;stroke-width:0.264583"
         x="885.64001"
         y="155.76503" /></text>
    <text
       xml:space="preserve"
       style="font-style:normal;font-variant:normal;font-weight:normal;font-stretch:normal;font-size:22.5778px;line-height:1.25;font-family:Poppins;-inkscape-font-specification:Poppins;text-align:center;text-anchor:middle;fill:#999999;stroke-width:0.264583"
       x="296.64694"
       y="414.73947"
       id="text49514"><tspan
         sodipodi:role="line"
         id="tspan49512"
         style="font-style:normal;font-variant:normal;font-weight:normal;font-stretch:normal;font-size:22.5778px;font-family:Poppins;-inkscape-font-specification:Poppins;fill:#999999;stroke-width:0.264583"
         x="296.64694"
         y="414.73947" /></text>
    <text
       xml:space="preserve"
       style="font-size:22.5778px;line-height:1.25;font-family:sans-serif;text-align:center;text-anchor:middle;fill:#999999;stroke-width:0.264583"
       x="798.84534"
       y="156.80682"
       id="text49518"><tspan
         sodipodi:role="line"
         id="tspan49516"
         style="font-style:normal;font-variant:normal;font-weight:normal;font-stretch:normal;font-size:22.5778px;font-family:'Tamil Sangam MN';-inkscape-font-specification:'Tamil Sangam MN';fill:#999999;stroke-width:0.264583"
         x="798.84534"
         y="156.80682" /></text>
    <text
       xml:space="preserve"
       style="font-size:22.5778px;line-height:1.25;font-family:sans-serif;text-align:center;text-anchor:middle;fill:#999999;stroke-width:0.264583"
       x="581.5639"
       y="152.87891"
       id="text49522"><tspan
         sodipodi:role="line"
         id="tspan49520"
         style="font-style:normal;font-variant:normal;font-weight:normal;font-stretch:normal;font-size:22.5778px;font-family:'Telugu Sangam MN';-inkscape-font-specification:'Telugu Sangam MN';fill:#999999;stroke-width:0.264583"
         x="581.5639"
         y="152.87891" /></text>
    <text
       xml:space="preserve"
       style="font-style:normal;font-variant:normal;font-weight:normal;font-stretch:normal;font-size:22.5778px;line-height:1.25;font-family:'Kannada Sangam MN';-inkscape-font-specification:'Kannada Sangam MN';text-align:center;text-anchor:middle;fill:#999999;stroke-width:0.264583"
       x="208.22768"
       y="153.72552"
       id="text49526"><tspan
         sodipodi:role="line"
         id="tspan49524"
         style="font-style:normal;font-variant:normal;font-weight:normal;font-stretch:normal;font-size:22.5778px;font-family:'Kannada Sangam MN';-inkscape-font-specification:'Kannada Sangam MN';fill:#999999;stroke-width:0.264583"
         x="208.22768"
         y="153.72552" /></text>
    <text
       xml:space="preserve"
       style="font-style:normal;font-variant:normal;font-weight:normal;font-stretch:normal;font-size:22.5778px;line-height:1.25;font-family:'Kannada Sangam MN';-inkscape-font-specification:'Kannada Sangam MN';text-align:center;text-anchor:middle;fill:#999999;stroke-width:0.264583"
       x="446.80713"
       y="155.70055"
       id="text49530"><tspan
         sodipodi:role="line"
         id="tspan49528"
         style="font-style:normal;font-variant:normal;font-weight:normal;font-stretch:normal;font-size:22.5778px;font-family:Poppins;-inkscape-font-specification:Poppins;fill:#999999;stroke-width:0.264583"
         x="446.80713"
         y="155.70055" /></text>
    <text
       xml:space="preserve"
       style="font-style:normal;font-variant:normal;font-weight:normal;font-stretch:normal;font-size:22.5778px;line-height:1.25;font-family:'Kannada Sangam MN';-inkscape-font-specification:'Kannada Sangam MN';text-align:center;text-anchor:middle;fill:#999999;stroke-width:0.264583"
       x="44.609989"
       y="431.7908"
       id="text49534"><tspan
         sodipodi:role="line"
         id="tspan49532"
         style="font-style:normal;font-variant:normal;font-weight:normal;font-stretch:normal;font-size:22.5778px;font-family:'Oriya Sangam MN';-inkscape-font-specification:'Oriya Sangam MN';fill:#999999;stroke-width:0.264583"
         x="44.609989"
         y="431.7908" /></text>
    <text
       xml:space="preserve"
       style="font-style:normal;font-variant:normal;font-weight:normal;font-stretch:normal;font-size:22.5778px;line-height:1.25;font-family:'Gujarati Sangam MN';-inkscape-font-specification:'Gujarati Sangam MN';text-align:center;text-anchor:middle;fill:#999999;stroke-width:0.264583"
       x="964.36481"
       y="153.58221"
       id="text49538"><tspan
         sodipodi:role="line"
         id="tspan49536"
         style="font-style:normal;font-variant:normal;font-weight:normal;font-stretch:normal;font-size:22.5778px;font-family:'Gujarati Sangam MN';-inkscape-font-specification:'Gujarati Sangam MN';fill:#999999;stroke-width:0.264583"
         x="964.36481"
         y="153.58221" /></text>
    <text
       xml:space="preserve"
       style="font-style:normal;font-variant:normal;font-weight:normal;font-stretch:normal;font-size:22.5778px;line-height:1.25;font-family:Manjari;-inkscape-font-specification:Manjari;text-align:center;text-anchor:middle;fill:#999999;stroke-width:0.264583"
       x="693.50232"
       y="150.01584"
       id="text49542"><tspan
         sodipodi:role="line"
         id="tspan49540"
         style="font-style:normal;font-variant:normal;font-weight:normal;font-stretch:normal;font-size:22.5778px;font-family:Manjari;-inkscape-font-specification:Manjari;fill:#999999;stroke-width:0.264583"
         x="693.50232"
         y="150.01584" /></text>
  </g>
</svg>
